<?xml version="1.0" encoding="UTF-8" ?>
<!DOCTYPE svg PUBLIC "-//W3C//DTD SVG 1.1//EN" "http://www.w3.org/Graphics/SVG/1.1/DTD/svg11.dtd">
<svg width="300pt" height="319pt" viewBox="0 0 300 319" version="1.1" xmlns="http://www.w3.org/2000/svg">
<g id="#909aacff">
<path fill="#909aac" opacity="1.00" d=" M 0.00 0.00 L 132.23 0.00 C 132.22 44.09 132.28 88.19 132.20 132.28 C 88.14 132.37 44.07 132.35 0.00 132.29 L 0.00 0.00 Z" />
<path fill="#909aac" opacity="1.00" d=" M 167.78 0.00 L 300.00 0.00 L 300.00 132.32 C 255.93 132.32 211.87 132.39 167.80 132.28 C 167.72 88.19 167.77 44.09 167.78 0.00 Z" />
<path fill="#909aac" opacity="1.00" d=" M 0.00 167.87 C 44.07 167.87 88.14 167.84 132.21 167.88 C 132.26 212.02 132.26 256.15 132.20 300.28 C 88.14 300.38 44.07 300.35 0.00 300.29 L 0.00 167.87 Z" />
<path fill="#909aac" opacity="1.00" d=" M 167.79 167.88 C 211.86 167.84 255.93 167.87 300.00 167.87 L 300.00 300.32 C 255.93 300.32 211.86 300.39 167.80 300.28 C 167.73 256.15 167.75 212.02 167.79 167.88 Z" />
</g>
</svg>
