<?xml version="1.0" encoding="UTF-8" ?>
<!DOCTYPE svg PUBLIC "-//W3C//DTD SVG 1.1//EN" "http://www.w3.org/Graphics/SVG/1.1/DTD/svg11.dtd">
<svg width="300pt" height="261pt" viewBox="0 0 300 261" version="1.1" xmlns="http://www.w3.org/2000/svg">
<g id="#574b62ff">
<path fill="#574b62" opacity="1.00" d=" M 92.02 35.04 C 96.71 32.95 101.92 32.50 107.00 32.64 C 137.00 32.70 167.00 32.64 197.00 32.67 C 206.43 32.65 215.22 37.71 220.93 45.05 C 232.36 59.62 237.12 77.88 242.75 95.18 C 243.99 99.74 247.72 102.89 250.43 106.56 C 254.33 111.65 258.61 116.43 262.34 121.64 C 264.45 125.84 265.63 130.48 266.69 135.04 C 268.41 146.31 266.26 157.72 267.29 169.01 C 267.28 183.01 267.38 197.02 267.25 211.02 C 267.15 219.78 259.79 227.63 251.04 228.20 C 245.03 228.48 239.00 228.35 232.98 228.29 C 225.24 228.11 217.99 222.41 216.28 214.82 C 214.95 208.38 216.04 201.75 215.60 195.23 L 215.01 194.60 C 171.93 194.54 128.83 194.49 85.73 194.62 C 85.11 202.60 87.25 211.13 83.70 218.63 C 81.12 224.72 74.37 228.01 68.03 228.29 C 62.35 228.41 56.68 228.34 51.00 228.33 C 45.24 228.36 39.43 225.66 36.10 220.90 C 33.13 216.92 32.47 211.82 32.67 206.99 C 32.92 191.67 32.24 176.31 33.13 161.01 C 32.74 149.59 31.23 137.56 35.72 126.71 C 37.40 122.42 40.51 118.94 43.47 115.50 C 47.42 110.78 51.32 106.01 55.32 101.34 C 56.62 99.69 58.18 98.14 58.87 96.11 C 64.33 79.24 68.14 61.28 78.57 46.57 C 81.88 41.57 86.60 37.58 92.02 35.04 M 94.45 40.49 C 87.84 43.50 83.26 49.55 79.76 55.71 C 73.20 67.62 69.74 80.87 65.79 93.79 C 64.78 96.92 64.10 100.34 61.82 102.86 C 56.18 109.54 50.61 116.29 44.97 122.99 C 40.67 127.91 38.79 134.56 38.71 141.00 C 38.67 147.67 38.53 154.36 39.12 161.01 C 38.25 177.32 38.88 193.69 38.71 210.02 C 38.27 216.32 43.63 222.26 49.97 222.29 C 55.99 222.40 62.01 222.36 68.03 222.30 C 74.08 222.42 79.70 217.15 79.68 211.04 C 79.80 203.58 79.59 196.11 79.76 188.65 C 121.51 188.43 163.25 188.61 205.00 188.55 C 210.58 188.65 216.17 188.30 221.75 188.80 C 221.58 195.87 221.64 202.94 221.66 210.02 C 221.49 214.25 223.65 218.50 227.36 220.64 C 231.44 223.18 236.45 222.13 241.00 222.34 C 245.43 222.12 250.13 223.04 254.35 221.32 C 258.73 219.45 261.53 214.75 261.29 210.02 C 261.33 197.01 261.26 184.01 261.32 171.00 C 261.39 166.31 260.46 161.65 261.15 156.97 C 261.38 145.95 262.51 134.11 256.78 124.17 C 251.24 117.07 245.51 110.12 239.91 103.08 C 237.88 100.61 237.33 97.38 236.33 94.45 C 231.76 80.16 227.53 65.45 219.23 52.77 C 215.66 47.43 211.04 42.41 204.92 40.05 C 200.83 38.36 196.32 38.67 192.00 38.65 C 164.67 38.68 137.34 38.67 110.00 38.66 C 104.80 38.71 99.29 38.16 94.45 40.49 Z" />
<path fill="#574b62" opacity="1.00" d=" M 91.06 59.05 C 93.89 54.20 97.87 48.55 104.05 48.36 C 133.70 48.29 163.36 48.38 193.02 48.31 C 198.20 48.00 202.12 52.10 205.41 55.56 C 214.64 66.26 218.95 80.26 221.25 93.98 C 201.74 94.08 182.22 94.09 162.71 93.98 C 172.71 81.76 183.70 70.34 193.68 58.14 C 192.63 56.85 191.81 54.77 190.02 54.52 C 187.07 56.43 184.12 58.47 181.76 61.09 C 181.47 63.54 181.59 66.02 181.49 68.49 C 175.72 74.71 170.22 81.17 164.65 87.57 C 163.18 87.68 161.71 87.80 160.24 87.93 C 157.87 90.37 156.16 94.85 152.07 94.16 C 133.04 94.12 114.02 94.15 95.00 94.14 C 90.40 94.13 85.78 94.30 81.19 93.85 C 82.26 81.78 85.26 69.73 91.06 59.05 M 98.09 59.06 C 92.38 67.70 89.35 77.88 87.87 88.06 C 108.60 88.23 129.33 88.12 150.06 88.12 C 153.61 88.37 154.79 84.07 157.67 82.79 C 159.52 81.94 161.77 81.75 163.13 80.08 C 166.91 76.19 170.14 71.81 173.95 67.96 C 176.30 66.00 175.30 62.70 175.93 60.07 C 176.12 57.50 178.27 55.86 179.95 54.19 C 154.98 54.53 130.00 54.24 105.03 54.33 C 101.86 54.00 99.85 56.90 98.09 59.06 M 199.52 58.18 C 199.07 59.77 198.87 61.52 197.80 62.85 C 190.54 71.22 182.98 79.34 175.97 87.92 C 188.68 88.16 201.38 88.01 214.09 88.00 C 211.61 77.17 207.43 66.24 199.52 58.18 Z" />
<path fill="#574b62" opacity="1.00" d=" M 115.84 141.97 C 115.52 138.63 118.74 135.95 121.95 136.38 C 141.62 136.42 161.29 136.34 180.96 136.42 C 183.92 136.24 186.58 138.99 186.32 141.94 C 186.08 146.99 185.15 152.01 183.76 156.87 C 183.14 158.62 182.39 161.34 179.98 160.84 C 160.08 160.80 140.16 161.00 120.26 160.74 C 117.53 154.87 116.28 148.39 115.84 141.97 M 122.01 142.30 C 122.05 146.56 123.00 150.74 124.10 154.83 C 140.75 154.91 157.40 154.79 174.05 154.90 C 175.44 154.67 177.23 155.36 178.36 154.29 C 179.57 150.37 179.85 146.26 180.57 142.24 C 161.06 142.54 141.53 142.41 122.01 142.30 Z" />
<path fill="#574b62" opacity="1.00" d=" M 60.22 139.06 C 70.51 140.00 80.55 143.00 90.79 144.49 C 96.11 144.86 99.92 150.84 97.86 155.81 C 96.57 159.39 92.74 161.42 89.04 161.19 C 80.68 161.19 72.32 161.33 63.97 161.11 C 59.27 161.18 55.36 156.67 55.84 152.04 C 56.15 147.59 56.16 141.88 60.22 139.06 M 62.45 145.14 C 62.00 148.35 61.72 151.61 62.13 154.84 C 72.09 155.43 82.16 155.47 92.12 154.82 C 92.23 153.32 92.61 150.89 90.54 150.59 C 81.20 148.69 71.83 146.84 62.45 145.14 Z" />
<path fill="#574b62" opacity="1.00" d=" M 236.40 139.61 C 238.73 139.26 241.91 138.07 243.40 140.66 C 245.69 144.31 245.91 148.85 245.95 153.04 C 246.05 157.72 241.59 161.50 237.03 161.17 C 228.36 161.18 219.68 161.38 211.01 161.07 C 206.12 160.88 202.46 155.72 203.61 151.02 C 204.28 147.77 207.09 145.08 210.39 144.62 C 219.09 143.11 227.75 141.38 236.40 139.61 M 219.11 149.04 C 216.00 149.73 212.74 149.90 209.78 151.14 C 209.60 152.37 209.63 153.60 209.85 154.84 C 216.54 155.58 223.28 155.05 229.99 155.22 C 233.16 155.11 236.47 155.65 239.52 154.57 C 240.12 151.64 240.44 147.73 238.67 145.29 C 232.11 146.27 225.65 147.89 219.11 149.04 Z" />
</g>
</svg>
