<?xml version="1.0" encoding="UTF-8" ?>
<!DOCTYPE svg PUBLIC "-//W3C//DTD SVG 1.1//EN" "http://www.w3.org/Graphics/SVG/1.1/DTD/svg11.dtd">
<svg width="300pt" height="300pt" viewBox="0 0 300 300" version="1.1" xmlns="http://www.w3.org/2000/svg">
<g id="#ed0707ff">
<path fill="#ed0707" opacity="1.00" d=" M 38.55 6.55 C 40.62 4.41 42.81 2.40 45.01 0.39 C 49.40 4.19 53.31 8.49 57.45 12.55 C 88.33 43.32 119.00 74.30 150.00 104.94 C 178.31 76.95 206.34 48.65 234.54 20.54 C 241.39 13.87 247.87 6.83 254.95 0.40 C 268.06 12.83 280.52 25.94 293.44 38.56 C 295.58 40.63 297.59 42.83 299.59 45.04 C 286.16 59.11 272.11 72.60 258.44 86.45 C 237.34 107.66 216.02 128.67 195.04 150.00 C 219.87 175.15 245.01 200.01 269.95 225.05 C 279.78 235.06 290.00 244.71 299.59 254.96 C 287.17 268.06 274.05 280.51 261.43 293.44 C 259.37 295.58 257.17 297.59 254.96 299.59 C 240.55 285.83 226.73 271.45 212.55 257.45 C 191.67 236.67 170.99 215.70 150.00 195.04 C 119.00 225.69 88.33 256.67 57.45 287.44 C 53.31 291.50 49.40 295.79 45.01 299.59 C 36.27 291.47 28.11 282.76 19.58 274.42 C 13.23 267.89 6.51 261.72 0.40 254.96 C 13.82 240.87 27.88 227.39 41.54 213.54 C 62.65 192.33 83.95 171.31 104.94 150.00 C 74.96 119.67 44.65 89.66 14.55 59.45 C 9.85 54.62 4.83 50.09 0.39 45.01 C 12.84 31.93 25.93 19.47 38.55 6.55 Z" />
</g>
</svg>
