<?xml version="1.0" encoding="UTF-8" ?>
<!DOCTYPE svg PUBLIC "-//W3C//DTD SVG 1.1//EN" "http://www.w3.org/Graphics/SVG/1.1/DTD/svg11.dtd">
<svg width="300pt" height="300pt" viewBox="0 0 300 300" version="1.1" xmlns="http://www.w3.org/2000/svg">
<g id="#ffb31eff">
<path fill="#ffb31e" opacity="1.00" d=" M 137.32 15.23 C 157.21 13.01 177.29 16.52 196.15 22.80 C 238.21 37.71 271.97 74.94 281.41 118.74 C 286.74 139.14 286.74 160.86 281.41 181.26 C 270.83 230.39 229.60 271.33 180.42 281.61 C 159.98 286.83 138.25 286.60 117.87 281.20 C 90.52 275.24 65.88 259.38 47.48 238.50 C 36.72 225.46 27.55 210.87 22.31 194.72 C 17.14 178.38 13.73 161.25 14.73 144.05 C 15.27 131.34 18.21 118.87 21.83 106.73 C 27.03 90.01 36.40 74.91 47.49 61.49 C 65.50 41.09 89.44 25.42 116.09 19.23 C 123.08 17.47 130.14 15.95 137.32 15.23 M 137.32 29.23 C 101.05 32.79 67.12 53.86 47.66 84.64 C 31.29 110.00 25.08 141.63 30.46 171.31 C 35.24 198.89 50.07 224.55 71.46 242.58 C 90.83 259.13 115.55 269.29 140.97 271.07 C 167.16 273.06 193.97 266.34 215.96 251.94 C 239.22 236.96 257.08 213.79 265.52 187.44 C 273.96 161.55 273.32 132.82 263.70 107.35 C 253.94 81.08 234.69 58.52 210.35 44.64 C 188.44 31.95 162.48 26.60 137.32 29.23 Z" />
<path fill="#ffb31e" opacity="1.00" d=" M 139.34 55.27 C 157.42 53.24 176.09 56.46 192.36 64.63 C 212.91 74.80 229.54 92.62 238.20 113.85 C 247.29 135.72 247.71 161.03 239.37 183.19 C 231.74 203.85 216.65 221.59 197.58 232.57 C 181.18 242.12 161.87 246.48 142.96 245.05 C 122.75 243.65 103.13 235.45 87.83 222.19 C 71.18 207.92 59.67 187.75 56.06 166.10 C 52.47 145.37 55.98 123.50 65.99 104.99 C 80.41 77.79 108.68 58.48 139.34 55.27 M 136.41 66.64 C 106.64 71.17 80.44 93.05 70.50 121.44 C 62.94 142.35 64.08 166.25 73.72 186.29 C 81.64 202.99 95.21 216.93 111.70 225.28 C 127.30 233.30 145.45 236.13 162.78 233.49 C 180.90 230.79 198.01 221.91 210.71 208.70 C 222.23 196.83 230.16 181.50 233.08 165.21 C 236.35 147.41 233.75 128.56 225.62 112.37 C 217.62 96.26 204.33 82.85 188.29 74.71 C 172.45 66.57 153.98 63.79 136.41 66.64 Z" />
<path fill="#ffb31e" opacity="1.00" d=" M 96.72 109.82 C 107.33 95.50 124.03 85.64 141.80 83.77 C 141.09 96.02 140.37 108.28 139.60 120.53 C 136.34 121.78 133.36 123.61 130.49 125.57 C 129.42 126.55 128.07 125.37 127.00 125.02 C 116.92 119.92 106.78 114.94 96.72 109.82 M 120.64 106.18 C 122.52 107.16 124.43 108.11 126.36 109.00 C 126.45 106.76 126.57 104.52 126.72 102.28 C 124.67 103.54 122.61 104.80 120.64 106.18 Z" />
<path fill="#ffb31e" opacity="1.00" d=" M 158.79 83.73 C 176.12 85.95 192.27 95.41 202.93 109.21 C 192.09 115.01 181.08 120.50 170.10 126.05 C 167.15 123.83 163.92 122.02 160.57 120.46 C 160.07 108.22 159.21 95.98 158.79 83.73 M 173.73 102.68 C 173.80 104.58 173.91 106.47 174.03 108.37 C 175.67 107.58 177.29 106.75 178.90 105.90 C 177.24 104.72 175.50 103.67 173.73 102.68 Z" />
<path fill="#ffb31e" opacity="1.00" d=" M 180.93 144.11 C 191.18 137.40 201.27 130.44 211.65 123.95 C 218.59 140.44 218.56 159.55 211.67 176.05 C 201.27 169.57 191.18 162.60 180.93 155.89 C 181.36 151.97 181.36 148.02 180.93 144.11 M 197.47 150.00 C 199.19 151.24 200.96 152.43 202.80 153.49 C 202.86 151.17 202.86 148.84 202.80 146.52 C 200.95 147.57 199.19 148.75 197.47 150.00 Z" />
<path fill="#ffb31e" opacity="1.00" d=" M 88.12 124.54 C 98.55 130.89 108.60 137.83 118.95 144.30 C 118.65 148.10 118.65 151.91 118.96 155.71 C 108.61 162.19 98.54 169.10 88.13 175.47 C 81.45 159.35 81.46 140.67 88.12 124.54 M 97.12 146.78 C 97.11 148.93 97.11 151.08 97.11 153.23 C 98.75 152.18 100.37 151.11 101.97 150.00 C 100.37 148.90 98.75 147.83 97.12 146.78 Z" />
<path fill="#ffb31e" opacity="1.00" d=" M 146.38 135.54 C 154.66 133.21 163.86 139.53 164.73 148.06 C 166.05 156.25 159.28 164.53 150.99 164.85 C 143.40 165.57 136.04 159.51 135.21 151.94 C 134.09 144.67 139.22 137.18 146.38 135.54 M 149.17 149.17 C 148.65 150.79 149.20 151.34 150.82 150.82 C 151.34 149.20 150.79 148.65 149.17 149.17 Z" />
<path fill="#ffb31e" opacity="1.00" d=" M 126.34 175.33 C 127.46 174.82 128.56 174.12 129.82 174.03 C 132.96 176.06 136.07 178.18 139.60 179.47 C 140.39 191.73 141.11 203.99 141.80 216.26 C 124.04 214.34 107.34 204.51 96.72 190.19 C 106.57 185.19 116.49 180.33 126.34 175.33 M 120.65 193.83 C 122.62 195.21 124.68 196.46 126.73 197.72 C 126.58 195.49 126.47 193.25 126.38 191.01 C 124.44 191.90 122.54 192.84 120.65 193.83 Z" />
<path fill="#ffb31e" opacity="1.00" d=" M 160.58 179.54 C 163.92 177.97 167.16 176.17 170.11 173.95 C 181.08 179.49 192.10 184.98 202.94 190.79 C 192.27 204.57 176.14 214.07 158.80 216.24 C 159.22 204.00 160.08 191.77 160.58 179.54 M 174.03 191.63 C 173.91 193.52 173.81 195.41 173.74 197.31 C 175.51 196.32 177.25 195.27 178.91 194.10 C 177.30 193.24 175.67 192.42 174.03 191.63 Z" />
</g>
</svg>
