<?xml version="1.0" encoding="UTF-8" ?>
<!DOCTYPE svg PUBLIC "-//W3C//DTD SVG 1.1//EN" "http://www.w3.org/Graphics/SVG/1.1/DTD/svg11.dtd">
<svg width="225pt" height="195pt" viewBox="0 0 225 195" version="1.1" xmlns="http://www.w3.org/2000/svg">
<g id="#9b9b9bff">
<path fill="#9b9b9b" opacity="1.00" d=" M 8.31 0.00 L 90.67 0.00 C 92.93 1.45 95.17 3.07 96.61 5.39 C 101.34 12.83 105.24 20.78 110.20 28.07 C 111.79 28.20 113.37 28.35 114.97 28.38 C 147.98 28.27 181.00 28.37 214.02 28.33 C 219.15 27.96 223.12 31.90 225.00 36.31 L 225.00 186.68 C 223.70 190.29 220.97 193.13 217.66 195.00 L 7.36 195.00 C 4.05 193.14 1.31 190.30 0.00 186.69 L 0.00 8.32 C 1.36 4.41 4.40 1.36 8.31 0.00 M 15.07 15.08 C 14.95 70.02 14.95 124.98 15.07 179.92 C 80.02 180.05 144.98 180.05 209.92 179.93 C 210.05 134.98 210.05 90.02 209.93 45.08 C 175.96 44.88 141.98 45.08 108.01 44.98 C 102.05 44.69 96.17 47.34 90.26 45.86 C 89.57 35.61 90.30 25.33 89.93 15.08 C 64.98 14.95 40.02 14.95 15.07 15.08 Z" />
</g>
</svg>
