<?xml version="1.0" encoding="UTF-8" ?>
<!DOCTYPE svg PUBLIC "-//W3C//DTD SVG 1.1//EN" "http://www.w3.org/Graphics/SVG/1.1/DTD/svg11.dtd">
<svg width="300pt" height="300pt" viewBox="0 0 300 300" version="1.1" xmlns="http://www.w3.org/2000/svg">
<g id="#000000ff">
<path fill="#000000" opacity="1.00" d=" M 224.30 35.33 C 231.51 34.47 238.81 35.07 246.05 34.94 C 253.26 34.77 260.29 39.17 263.30 45.72 C 265.39 49.82 265.08 54.54 265.09 59.01 C 265.00 63.69 265.21 68.39 265.00 73.07 C 264.70 81.77 257.40 89.50 248.80 90.51 C 243.55 90.98 238.27 90.63 233.00 90.75 C 228.17 90.84 223.05 90.78 218.79 88.17 C 212.75 84.80 209.08 77.94 209.30 71.06 C 209.37 64.44 209.05 57.81 209.51 51.21 C 210.42 43.49 216.69 36.82 224.30 35.33 Z" />
<path fill="#000000" opacity="1.00" d=" M 144.32 114.20 C 153.77 112.94 163.96 114.50 171.77 120.25 C 179.80 126.11 184.60 135.42 186.99 144.89 C 189.55 153.75 187.40 163.31 183.42 171.40 C 179.02 180.40 170.09 186.73 160.29 188.48 C 150.27 190.28 139.37 189.73 130.25 184.84 C 122.62 180.79 117.33 173.29 114.76 165.18 C 112.99 159.40 111.82 153.17 113.22 147.19 C 115.19 137.94 119.26 128.78 126.39 122.36 C 131.32 117.84 137.72 115.10 144.32 114.20 Z" />
<path fill="#000000" opacity="1.00" d=" M 50.32 133.36 C 55.45 132.12 60.79 132.55 66.01 132.57 C 69.43 132.51 73.34 133.91 74.65 137.35 C 76.18 142.73 76.59 148.35 76.81 153.91 C 77.17 169.68 82.63 185.29 92.17 197.85 C 103.40 212.76 120.46 223.18 138.90 226.15 C 153.52 228.73 168.85 226.54 182.27 220.26 C 206.49 209.27 223.82 184.65 225.81 158.10 C 226.52 152.05 225.54 146.01 225.45 139.96 C 225.48 135.55 229.83 132.51 233.98 132.62 C 240.23 132.59 246.81 131.80 252.76 134.17 C 259.77 137.10 265.34 144.12 265.07 151.95 C 265.07 183.32 265.08 214.69 265.06 246.06 C 265.28 253.85 259.58 260.75 252.59 263.60 C 247.99 265.58 242.87 265.01 238.00 265.09 C 177.32 265.06 116.63 265.11 55.95 265.07 C 47.76 265.13 39.63 260.19 36.28 252.66 C 34.59 249.01 34.95 244.89 34.91 240.99 C 34.95 213.66 34.93 186.33 34.92 159.00 C 34.99 155.13 34.59 151.18 35.48 147.37 C 37.44 140.48 43.54 135.26 50.32 133.36 Z" />
</g>
</svg>
