<?xml version="1.0" encoding="utf-8"?>
<!-- Generator: Adobe Illustrator 16.0.4, SVG Export Plug-In . SVG Version: 6.00 Build 0)  -->
<!DOCTYPE svg PUBLIC "-//W3C//DTD SVG 1.1//EN" "http://www.w3.org/Graphics/SVG/1.1/DTD/svg11.dtd">
<svg version="1.1" id="Layer_1" xmlns="http://www.w3.org/2000/svg" xmlns:xlink="http://www.w3.org/1999/xlink" x="0px" y="0px"
	 width="50px" height="50px" viewBox="0 0 50 50" enable-background="new 0 0 50 50" xml:space="preserve">
<path d="M40.334,42.167H9.666c-1.381,0-2.5-1.119-2.5-2.5s1.119-2.5,2.5-2.5h30.668c1.381,0,2.5,1.119,2.5,2.5
	S41.715,42.167,40.334,42.167z M40.334,34.833H9.666c-1.381,0-2.5-1.119-2.5-2.5s1.119-2.5,2.5-2.5h30.668
	c1.381,0,2.5,1.119,2.5,2.5S41.715,34.833,40.334,34.833z M40.334,27.499H9.666c-1.381,0-2.5-1.119-2.5-2.5s1.119-2.5,2.5-2.5
	h30.668c1.381,0,2.5,1.119,2.5,2.5S41.715,27.499,40.334,27.499z M40.334,20.167H9.666c-1.381,0-2.5-1.119-2.5-2.5
	s1.119-2.5,2.5-2.5h30.668c1.381,0,2.5,1.119,2.5,2.5S41.715,20.167,40.334,20.167z M40.334,12.833H9.666
	c-1.381,0-2.5-1.119-2.5-2.5s1.119-2.5,2.5-2.5h30.668c1.381,0,2.5,1.119,2.5,2.5S41.715,12.833,40.334,12.833z"/>
</svg>
