<?xml version="1.0" encoding="utf-8"?>
<!-- Generator: Adobe Illustrator 16.0.0, SVG Export Plug-In . SVG Version: 6.00 Build 0)  -->
<!DOCTYPE svg PUBLIC "-//W3C//DTD SVG 1.1//EN" "http://www.w3.org/Graphics/SVG/1.1/DTD/svg11.dtd">
<svg version="1.1" id="Layer_1" xmlns="http://www.w3.org/2000/svg" xmlns:xlink="http://www.w3.org/1999/xlink" x="0px" y="0px"
	 width="100px" height="100px" viewBox="0 0 100 100" enable-background="new 0 0 100 100" xml:space="preserve">
<path d="M24.972,37.512h8.242l-8.126,2.654C25.028,38.957,24.991,38.041,24.972,37.512z"/>
<path d="M25.422,45.731l12.656-4.129c-0.058,1.045-0.129,2.23-0.217,3.523l-12.174,4.047C25.587,47.975,25.498,46.817,25.422,45.731
	z"/>
<path d="M34.301,70.502l-4.549,2.514c-0.359-0.966-0.693-2.041-1.002-3.206l6.514-3.311C34.971,67.92,34.65,69.265,34.301,70.502z"
	/>
<path d="M35.512,65.252l-7.013,3.563c-0.308-1.261-0.59-2.604-0.849-4.002l0.031,0.06l8.637-4.514
	C36.078,62.033,35.811,63.678,35.512,65.252z"/>
<path d="M36.489,59.142l-9.014,4.71c-0.231-1.327-0.442-2.694-0.635-4.076l10.098-4.28C36.802,56.708,36.653,57.928,36.489,59.142z"
	/>
<path d="M37.064,54.356l-10.363,4.392c-0.169-1.281-0.324-2.567-0.464-3.842l11.251-4.934
	C37.365,51.389,37.225,52.861,37.064,54.356z"/>
<path d="M31.622,76.599c-0.541-0.662-1.037-1.568-1.496-2.647l3.762-2.078C33.23,73.9,32.48,75.548,31.622,76.599z"/>
<path d="M37.583,48.838l-11.457,5.024c-0.13-1.246-0.247-2.474-0.352-3.664l12.012-3.993C37.725,47.05,37.658,47.929,37.583,48.838z
	"/>
<path d="M38.135,40.531l-12.782,4.171c-0.086-1.294-0.155-2.475-0.211-3.501l11.295-3.689h1.834
	C38.249,38.092,38.206,39.147,38.135,40.531z"/>
<path d="M39.303,36.512H23.939h-5.091c0.312-3.015,3.414-5.693,7.975-6.871v4.704h10v-4.704c4.561,1.178,7.663,3.856,7.975,6.871
	H39.303z"/>
<path d="M53.179,31.058h19.166c1.299,0,2.38,0.935,2.615,2.166H50.563C50.798,31.992,51.879,31.058,53.179,31.058z"/>
<path d="M62.761,76.477c-5.258-6.435-6.495-34.937-6.648-39.087h13.299C69.258,41.54,68.02,70.042,62.761,76.477z"/>
<path d="M69.864,36.39H55.659c-2.021-0.521-4.141-1.415-4.877-2.166h23.957C74.004,34.974,71.884,35.869,69.864,36.39z"/>
</svg>
