<?xml version="1.0" encoding="UTF-8" ?>
<!DOCTYPE svg PUBLIC "-//W3C//DTD SVG 1.1//EN" "http://www.w3.org/Graphics/SVG/1.1/DTD/svg11.dtd">
<svg width="300pt" height="300pt" viewBox="0 0 300 300" version="1.1" xmlns="http://www.w3.org/2000/svg">
<g id="#000000ff">
<path fill="#000000" opacity="1.00" d=" M 169.67 84.66 C 180.06 78.65 193.39 78.43 204.09 83.79 C 208.15 85.69 211.53 88.69 214.94 91.55 C 223.06 90.08 230.56 86.60 237.93 83.04 C 235.24 91.30 229.43 98.37 222.09 102.94 C 229.08 102.57 235.59 99.88 242.24 97.96 C 238.21 105.09 231.88 110.59 225.59 115.69 C 224.24 116.64 224.87 118.57 224.67 119.95 C 224.99 143.50 216.83 166.94 202.73 185.72 C 189.23 203.80 169.53 217.19 147.63 222.70 C 123.84 228.79 97.91 226.96 75.61 216.46 C 71.78 214.55 67.72 212.91 64.49 210.02 C 83.08 211.19 102.77 206.65 117.16 194.37 C 102.22 193.79 87.72 183.59 83.57 169.01 C 88.58 169.23 93.67 169.55 98.61 168.50 L 98.96 167.95 C 94.03 166.21 88.95 164.57 84.85 161.17 C 75.50 154.27 70.34 142.77 70.10 131.28 C 75.09 133.84 80.49 135.75 86.14 135.95 C 82.56 132.16 78.36 128.86 75.83 124.20 C 68.92 113.01 69.12 98.42 75.23 86.93 C 77.30 88.46 78.91 90.50 80.63 92.39 C 98.89 111.92 124.91 124.15 151.68 125.15 C 147.88 109.61 155.57 92.22 169.67 84.66 Z" />
</g>
</svg>
