<?xml version="1.0" encoding="UTF-8" ?>
<!DOCTYPE svg PUBLIC "-//W3C//DTD SVG 1.1//EN" "http://www.w3.org/Graphics/SVG/1.1/DTD/svg11.dtd">
<svg width="300pt" height="282pt" viewBox="0 0 300 282" version="1.1" xmlns="http://www.w3.org/2000/svg">
<g id="#ccb018cc">
<path fill="#ccb018" opacity="0.80" d=" M 0.00 0.00 L 52.83 0.00 C 53.09 17.62 52.93 35.24 52.91 52.86 C 35.27 52.87 17.64 52.84 0.00 52.87 L 0.00 0.00 Z" />
</g>
<g id="#ccb318cc">
<path fill="#ccb318" opacity="0.80" d=" M 88.11 0.00 L 88.58 0.00 C 92.55 1.55 96.85 0.98 101.00 0.99 C 167.34 1.00 233.67 0.99 300.00 1.00 L 300.00 17.63 C 229.44 17.59 158.87 17.57 88.31 17.64 C 88.22 11.76 88.45 5.87 88.11 0.00 Z" />
</g>
<g id="#70630ccc">
<path fill="#70630c" opacity="0.80" d=" M 88.58 0.00 L 300.00 0.00 L 300.00 1.00 C 233.67 0.99 167.34 1.00 101.00 0.99 C 96.85 0.98 92.55 1.55 88.58 0.00 Z" />
</g>
<g id="#cc9318cc">
<path fill="#cc9318" opacity="0.80" d=" M 0.00 106.17 C 17.63 106.21 35.25 106.19 52.88 106.17 C 53.02 123.68 53.03 141.20 52.85 158.71 C 35.23 158.64 17.62 158.63 0.00 158.71 L 0.00 132.00 C 16.64 131.86 33.28 132.26 49.91 131.83 C 51.66 123.80 52.45 115.46 51.83 107.24 C 34.56 106.99 17.28 107.27 0.00 107.11 L 0.00 106.17 Z" />
</g>
<g id="#cc9c18cc">
<path fill="#cc9c18" opacity="0.80" d=" M 88.29 106.20 C 158.86 106.12 229.43 106.25 300.00 106.14 L 300.00 123.36 C 230.99 123.44 161.98 123.35 92.98 123.40 C 91.39 123.36 89.82 123.26 88.24 123.13 C 88.32 117.49 88.26 111.84 88.29 106.20 Z" />
</g>
<g id="#cc9a18cc">
<path fill="#cc9a18" opacity="0.80" d=" M 0.00 107.11 C 17.28 107.27 34.56 106.99 51.83 107.24 C 52.45 115.46 51.66 123.80 49.91 131.83 C 33.28 132.26 16.64 131.86 0.00 132.00 L 0.00 107.11 Z" />
</g>
<g id="#67410b95">
<path fill="#67410b" opacity="0.58" d=" M 88.22 211.42 C 158.81 211.21 229.41 211.59 300.00 211.24 L 300.00 212.80 C 272.34 212.33 244.66 212.73 217.00 212.60 C 180.33 212.60 143.67 212.60 107.00 212.59 C 100.75 212.55 94.48 212.83 88.24 212.31 L 88.22 211.42 Z" />
</g>
<g id="#cc7c18cc">
<path fill="#cc7c18" opacity="0.80" d=" M 0.00 211.69 C 17.62 211.70 35.25 211.52 52.87 211.78 C 53.06 229.28 52.93 246.78 52.93 264.27 C 35.29 264.51 17.64 264.39 0.00 264.32 L 0.00 211.69 Z" />
</g>
<g id="#cc8018cc">
<path fill="#cc8018" opacity="0.80" d=" M 88.24 212.31 C 94.48 212.83 100.75 212.55 107.00 212.59 C 143.67 212.60 180.33 212.60 217.00 212.60 C 244.66 212.73 272.34 212.33 300.00 212.80 L 300.00 229.13 C 258.67 229.16 217.33 229.13 176.00 229.14 C 146.75 229.01 117.50 229.40 88.26 228.94 C 88.30 223.40 88.30 217.85 88.24 212.31 Z" />
</g>
</svg>
