<?xml version="1.0" standalone="no"?>
<!DOCTYPE svg PUBLIC "-//W3C//DTD SVG 1.1//EN" "http://www.w3.org/Graphics/SVG/1.1/DTD/svg11.dtd">
<svg xmlns="http://www.w3.org/2000/svg"><defs><font id="flaticon" horiz-adv-x="512"><font-face units-per-em="512" ascent="448" descent="-64" x-height="240" cap-height="480"/><missing-glyph horiz-adv-x="512"/><glyph unicode="&#xE000;" glyph-name="2x2" horiz-adv-x="512" d="M192 384H96C78.336 384 64 369.664 64 352v-96c0 -17.664 14.336 -32 32 -32h96c17.664 0 32 14.336 32 32V352C224 369.664 209.664 384 192 384zM416 384h-96C302.336 384 288 369.664 288 352v-96c0 -17.664 14.336 -32 32 -32h96c17.664 0 32 14.336 32 32V352C448 369.664 433.664 384 416 384zM192 160H96c-17.664 0 -32 -14.336 -32 -32v-96c0 -17.664 14.336 -32 32 -32h96c17.664 0 32 14.336 32 32v96C224 145.664 209.664 160 192 160zM416 160h-96c-17.664 0 -32 -14.336 -32 -32v-96c0 -17.664 14.336 -32 32 -32h96c17.664 0 32 14.336 32 32v96C448 145.664 433.664 160 416 160z"/><glyph unicode="&#xE001;" glyph-name="3x3" horiz-adv-x="512" d="M128 416H64C46.336 416 32 401.664 32 384v-64c0 -17.664 14.336 -32 32 -32h64c17.664 0 32 14.336 32 32V384C160 401.664 145.664 416 128 416zM288 416H224C206.336 416 192 401.664 192 384v-64c0 -17.664 14.336 -32 32 -32h64c17.664 0 32 14.336 32 32V384C320 401.664 305.664 416 288 416zM448 416h-64c-17.664 0 -32 -14.336 -32 -32v-64c0 -17.664 14.336 -32 32 -32h64c17.664 0 32 14.336 32 32V384C480 401.664 465.664 416 448 416zM128 256H64C46.336 256 32 241.664 32 224v-64c0 -17.664 14.336 -32 32 -32h64c17.664 0 32 14.336 32 32V224C160 241.664 145.664 256 128 256zM288 256H224C206.336 256 192 241.664 192 224v-64c0 -17.664 14.336 -32 32 -32h64c17.664 0 32 14.336 32 32V224C320 241.664 305.664 256 288 256zM448 256h-64c-17.664 0 -32 -14.336 -32 -32v-64c0 -17.664 14.336 -32 32 -32h64c17.664 0 32 14.336 32 32V224C480 241.664 465.664 256 448 256zM128 96H64c-17.664 0 -32 -14.336 -32 -32v-64c0 -17.664 14.336 -32 32 -32h64c17.664 0 32 14.336 32 32v64C160 81.664 145.664 96 128 96zM288 96H224c-17.664 0 -32 -14.336 -32 -32v-64c0 -17.664 14.336 -32 32 -32h64c17.664 0 32 14.336 32 32v64C320 81.664 305.664 96 288 96zM448 96h-64c-17.664 0 -32 -14.336 -32 -32v-64c0 -17.664 14.336 -32 32 -32h64c17.664 0 32 14.336 32 32v64C480 81.664 465.664 96 448 96z"/><glyph unicode="&#xE002;" glyph-name="arrow133" horiz-adv-x="319" d="M147.94669567582 192.02320732481l156.46378388179 156.46378388179c18.797933097634 18.774725772822 18.797933097634 49.547638473393 0 68.322364246215L287.30668117124 433.91315383918c-18.797933097634 18.821140422446 -49.547638473393 18.821140422446 -68.345571571027 0L13.924394887136 228.8764391261 c-10.095186293174 -10.071978968362 -14.574199981869 -23.601849333696 -13.854772912701 -36.876439126099c-0.71942706916871 -13.251382467591 3.7595866195268 -26.781252832925 13.854772912701 -36.853231801287l205.03671471308 -205.01350738827c18.797933097634 -18.821140422446 49.547638473393 -18.821140422446 68.345571571027 0 l17.103798386366 17.103798386366c18.797933097634 18.75151844801 18.797933097634 49.524431148581 0 68.299156921403L147.94669567582 192.02320732481z"/><glyph unicode="&#xE003;" glyph-name="arrow215" horiz-adv-x="512" d="M136.488 253.36L159.352 230.44L239.816 310.904L239.816 26.992L272.176 26.992L272.176 310.896L352.616 230.448L375.512 253.352L255.992 372.856ZM255.992 419.992C130.28 419.992 28 317.72 28 192s102.28 -227.992 227.992 -227.992C381.72 -35.992 484 66.28 484 192 S381.72 419.992 255.992 419.992zM255.992 -5.136C147.288 -5.136 58.856 83.296 58.856 192S147.288 389.136 255.992 389.136 c108.712 0 197.152 -88.432 197.152 -197.136S364.704 -5.136 255.992 -5.136z"/><glyph unicode="&#xE004;" glyph-name="arrow222" horiz-adv-x="512" d="M272.432 71.352L272.432 359.424L239.592 359.424L239.592 71.352L157.96 152.984L134.744 129.752L256 8.496L377.248 129.752L354.072 152.984ZM256 423.336C128.44 423.336 24.672 319.552 24.672 192c0 -127.552 103.768 -231.328 231.328 -231.328 c127.552 0 231.328 103.776 231.328 231.328C487.328 319.552 383.552 423.336 256 423.336zM256 -8.024C145.704 -8.024 55.984 81.704 55.984 192 S145.704 392.024 256 392.024c110.288 0 200.016 -89.736 200.016 -200.024S366.288 -8.024 256 -8.024z"/><glyph unicode="&#xE005;" glyph-name="arrow65" horiz-adv-x="819" d="M409.6 290.2016V448L102.4 192l307.2 -256V109.2096C565.4016 128.8192 692.2752 92.8768 819.2 -12.8C732.5184 203.8784 590.7968 273.8688 409.6 290.2016zM307.2 405.3504L307.2 448L0 192L307.2 -64L307.2 -21.3504L51.2 192Z"/><glyph unicode="&#xE006;" glyph-name="arrow85" horiz-adv-x="512" d="M314.368 315.552l0.064 0.064C307.488 321.856 296.224 321.856 289.28 315.648l-124.064 -112c-6.944 -6.24 -6.944 -16.352 0 -22.56l0.64 -0.384 l123.424 -111.712c6.944 -6.24 18.208 -6.24 25.152 0l0.128 0.192c3.36 2.88 5.44 6.912 5.44 11.36V304.032 C320 308.608 317.824 312.672 314.368 315.552z"/><glyph unicode="&#xE007;" glyph-name="arrow97" horiz-adv-x="512" d="M351.328 186.176l-95.904 -84.8l-95.872 84.8c-6.272 6.272 -16.48 6.272 -22.752 0c-6.272 -6.272 -6.272 -16.48 0 -22.72l107.04 -94.688 c3.2 -3.232 7.392 -4.736 11.584 -4.672C259.616 64 263.808 65.504 267.008 68.672l107.072 94.688c6.24 6.272 6.24 16.512 0 22.752 C367.776 192.416 357.568 192.448 351.328 186.176zM243.808 183.488c3.2 -3.2 7.392 -4.736 11.584 -4.672c4.192 -0.064 8.416 1.472 11.584 4.672l107.04 94.688 c6.368 6.272 6.368 16.448 0.064 22.752c-6.272 6.272 -16.512 6.272 -22.752 0l-95.904 -84.8l-95.872 84.8C153.248 307.2 143.04 307.2 136.768 300.928 c-6.272 -6.272 -6.272 -16.48 0 -22.752L243.808 183.488z"/><glyph unicode="&#xE008;" glyph-name="black13" horiz-adv-x="512" d="M199.72266666667 252.62933333333c0 0 -67.413333333333 -7.4666666666667 -112.384 -12.458666666667c-4.0533333333333 -0.49066666666667 -7.6373333333333 -3.2 -8.9813333333333 -7.3173333333333s0 -8.4053333333333 2.9866666666667 -11.114666666667 c33.408 -30.485333333333 83.605333333333 -76.138666666667 83.605333333333 -76.138666666667c-0.042666666666667 0 -13.781333333333 -66.410666666667 -22.912 -110.72c-0.768 -4.0106666666667 0.68266666666667 -8.256 4.1813333333333 -10.794666666667 c3.4773333333333 -2.5386666666667 7.9573333333333 -2.5813333333333 11.477333333333 -0.59733333333333c39.338666666667 22.357333333333 98.261333333333 55.978666666667 98.261333333333 55.978666666667s58.944 -33.621333333333 98.218666666667 -56 c3.584 -1.9626666666667 8.064 -1.92 11.541333333333 0.61866666666667c3.4986666666667 2.5386666666667 4.9493333333333 6.784 4.16 10.773333333333c-9.1306666666667 44.330666666667 -22.848 110.74133333333 -22.848 110.74133333333 s50.197333333333 45.653333333333 83.605333333333 76.074666666667c2.9866666666667 2.7946666666667 4.3093333333333 7.0826666666667 2.9866666666667 11.178666666667s-4.9066666666667 6.8053333333333 -8.96 7.2746666666667c-44.970666666667 5.0346666666667 -112.40533333333 12.501333333333 -112.40533333333 12.501333333333 s-27.946666666667 61.824 -46.570666666667 103.04c-1.7493333333333 3.6906666666667 -5.4186666666667 6.272 -9.728 6.272s-8 -2.6026666666667 -9.664 -6.272C227.648 314.45333333333 199.72266666667 252.62933333333 199.72266666667 252.62933333333z"/><glyph unicode="&#xE009;" glyph-name="car48" horiz-adv-x="512" d="M148.15232 259.75808h32.1536v-9.91232h-32.1536V259.75808zM341.87264 238.72512h9.91232v11.12064h11.12064v9.91232h-11.12064v11.12064h-9.91232v-11.12064h-11.1104 v-9.91232h11.1104V238.72512zM409.6 299.39712v-231.2704H102.4V299.39712h45.75232v16.46592h32.1536v-16.46592h151.3984v16.46592h32.1536v-16.46592H409.6zM122.22464 87.94112h108.8512 l15.60576 94.42304h-48.896l40.73472 97.21856H122.22464V87.94112zM389.77536 279.57248h-100.864l-34.36544 -58.55232h40.192l-60.79488 -133.07904h155.82208V279.57248z"/><glyph unicode="&#xE00A;" glyph-name="check34" horiz-adv-x="512" d="M417.36704 260.94592L236.51328 80.1024c-13.39392 -13.39392 -35.11808 -13.39392 -48.52224 0L94.63296 173.47072c-13.39904 13.39392 -13.39904 35.11808 0 48.51712 c13.39904 13.39904 35.1232 13.39904 48.51712 0.00512l69.10976 -69.10976L368.8448 309.46816c13.39904 13.39904 35.1232 13.3888 48.51712 0 C430.76096 296.06912 430.76096 274.35008 417.36704 260.94592z"/><glyph unicode="&#xE00B;" glyph-name="clear3" horiz-adv-x="512" d="M107.72334817777 307.35472143961c9.1669544669636 -9.1436880850677 23.91784058893 -9.2832863764428 33.061528673998 -0.13959829137508c9.0738889393802 9.0738889393802 9.1436880850677 23.754975915659 -0.16286467327093 33.061528673998l-32.572934654185 32.572934654185 C98.858856675452 382.03980732527 84.154503317277 382.17940561665 74.987548850314 373.01245114969c-9.097155321276 -9.0738889393802 -9.1669544669636 -23.731709533764 0.16286467327093 -33.061528673998L107.72334817777 307.35472143961zM488.52422066709 215.26638189585h-46.067436153776c-13.005907479778 0 -23.522312096701 -10.330273561756 -23.522312096701 -23.266381895847c0 -12.866309188403 10.30700717986 -23.266381895847 23.522312096701 -23.266381895847h46.067436153776c13.005907479778 0 23.475779332909 10.30700717986 23.475779332909 23.266381895847 C512 204.84304280651 501.66972643824 215.26638189585 488.52422066709 215.26638189585zM93.065527583386 192c0 12.843042806507 -10.330273561756 23.266381895847 -23.499045714805 23.266381895847H23.475779332909c-12.982641097882 0 -23.475779332909 -10.330273561756 -23.475779332909 -23.266381895847c0 -12.866309188403 10.30700717986 -23.266381895847 23.475779332909 -23.266381895847H69.566481868581 C82.549122966464 168.73361810415 93.065527583386 179.04062528401 93.065527583386 192zM256 331.66809052077c-77.08152322094 0 -139.59829137508 -62.51676815414 -139.59829137508 -139.59829137508c0 -77.08152322094 62.51676815414 -139.59829137508 139.59829137508 -139.59829137508c77.058256839044 0 139.59829137508 62.51676815414 139.59829137508 139.59829137508C395.59829137508 269.15132236663 333.05825683904 331.66809052077 256 331.66809052077zM256 99.004271562301 c-51.395437607925 0 -93.065527583386 41.670089975461 -93.065527583386 93.065527583386s41.670089975461 93.065527583386 93.065527583386 93.065527583386s93.065527583386 -41.670089975461 93.065527583386 -93.065527583386S307.39543760793 99.004271562301 256 99.004271562301zM107.72334817777 76.622012178497l-32.572934654185 -32.572934654185c-9.1902208488594 -9.1902208488594 -9.3298191402345 -23.894574207034 -0.16286467327093 -33.061528673998c9.097155321276 -9.0738889393802 23.754975915659 -9.1436880850677 33.061528673998 0.16286467327093l32.572934654185 32.572934654185 c9.1902208488594 9.1902208488594 9.3298191402345 23.894574207034 0.16286467327093 33.061528673998C131.68772153049 85.90529855494 117.02990093611 85.928564936835 107.72334817777 76.622012178497zM404.27665182223 307.35472143961l32.572934654185 32.596201036081c9.1902208488594 9.1902208488594 9.2832863764428 23.894574207034 0.16286467327093 33.061528673998c-9.1204217031719 9.0738889393802 -23.754975915659 9.1436880850677 -33.061528673998 -0.16286467327093l-32.572934654185 -32.572934654185 c-9.1902208488594 -9.1902208488594 -9.3065527583386 -23.91784058893 -0.16286467327093 -33.061528673998C380.3355448514 298.14123420885 394.97009906389 298.07143506316 404.27665182223 307.35472143961zM256 29.065527583386c-12.866309188403 0 -23.266381895847 -10.330273561756 -23.266381895847 -23.522312096701v-46.067436153776c0 -13.005907479778 10.330273561756 -23.475779332909 23.266381895847 -23.475779332909c12.866309188403 0 23.266381895847 10.283740797964 23.266381895847 23.475779332909v46.067436153776 C279.26638189585 18.549122966464 268.95937471599 29.065527583386 256 29.065527583386zM404.27665182223 76.622012178497c-9.1902208488594 9.1902208488594 -23.894574207034 9.3065527583386 -33.061528673998 0.16286467327093c-9.0738889393802 -9.1204217031719 -9.1669544669636 -23.754975915659 0.16286467327093 -33.061528673998l32.572934654185 -32.572934654185 c9.1902208488594 -9.1902208488594 23.894574207034 -9.2832863764428 33.061528673998 -0.16286467327093c9.097155321276 9.0738889393802 9.1669544669636 23.754975915659 -0.16286467327093 33.061528673998L404.27665182223 76.622012178497zM256 354.93447241661c12.866309188403 0 23.266381895847 10.30700717986 23.266381895847 23.499045714805V424.50095428519c0 12.982641097882 -10.30700717986 23.499045714805 -23.266381895847 23.499045714805c-12.866309188403 0 -23.266381895847 -10.330273561756 -23.266381895847 -23.499045714805v-46.067436153776 C232.73361810415 365.45087703354 243.06389166591 354.93447241661 256 354.93447241661z"/><glyph unicode="&#xE00C;" glyph-name="closed40" horiz-adv-x="512" d="M366.25408 175.91296l1.59744 1.05472c3.08224 2.14016 3.81952 6.36928 1.67936 9.44128c-2.16064 3.10272 -6.41024 3.79904 -9.44128 1.6896 c-106.01472 -74.11712 -183.18336 -3.65568 -186.42944 -0.62464c-2.73408 2.56 -7.04512 2.43712 -9.59488 -0.28672c-2.56 -2.73408 -2.43712 -7.00416 0.27648 -9.5744 c0.14336 -0.13312 2.56 -2.34496 6.9632 -5.61152l-13.57824 -22.39488c-1.93536 -3.19488 -0.9216 -7.3728 2.27328 -9.3184c1.09568 -0.65536 2.33472 -0.99328 3.5328 -0.99328 c2.28352 0 4.5056 1.16736 5.79584 3.25632l13.28128 21.87264c7.44448 -4.52608 16.98816 -9.472 28.3648 -13.66016l-6.54336 -21.87264 c-1.08544 -3.60448 0.94208 -7.36256 4.52608 -8.43776l1.9456 -0.28672c2.89792 0 5.60128 1.90464 6.48192 4.84352l6.48192 21.57568c10.496 -2.8672 22.24128 -4.8128 34.9184 -5.26336 v-21.67808c0 -3.74784 3.03104 -6.77888 6.77888 -6.77888s6.77888 3.03104 6.77888 6.77888v21.79072c11.0592 0.6144 22.77376 2.5088 35.0208 6.00064L315.6992 125.44 c1.03424 -2.7136 3.62496 -4.37248 6.33856 -4.37248l2.4064 0.43008c3.50208 1.3312 5.26336 5.24288 3.9424 8.74496l-8.13056 21.42208 c11.15136 4.1472 22.67136 9.59488 34.56 16.82432l10.98752 -14.66368c1.34144 -1.77152 3.3792 -2.7136 5.41696 -2.7136c1.42336 0 2.84672 0.43008 4.06528 1.35168 c2.99008 2.2528 3.60448 6.5024 1.36192 9.49248L366.25408 175.91296zM380.95872 228.93568c0 0 -2.69312 3.92192 -8.40704 9.1648c-2.79552 2.7648 -6.4512 5.55008 -10.73152 8.77568c-4.36224 2.89792 -9.30816 6.33856 -15.04256 9.24672 c-5.71392 3.03104 -12.05248 5.92896 -18.98496 8.2944c-6.8608 2.7136 -14.4384 4.3008 -22.31296 5.7344c-7.92576 0.99328 -16.2816 1.1776 -24.70912 0.80896 c-8.45824 -0.7168 -16.91648 -0.72704 -25.43616 -1.76128c-8.46848 -0.70656 -16.896 -1.4848 -25.11872 -3.11296c-4.11648 -0.7168 -8.20224 -1.29024 -12.17536 -2.17088 c-3.9424 -1.08544 -7.84384 -2.16064 -11.6736 -3.21536c-7.66976 -1.90464 -14.8992 -4.352 -21.56544 -7.2192c-6.73792 -2.57024 -12.98432 -5.16096 -18.46272 -8.2944 c-5.53984 -2.92864 -10.61888 -5.4272 -14.98112 -7.936c-4.15744 -2.83648 -7.80288 -5.29408 -10.8032 -7.3216c-5.84704 -4.096 -9.19552 -6.44096 -9.19552 -6.44096l-0.73728 -2.31424 c0.33792 -1.0752 1.49504 -1.6384 2.58048 -1.28l0.21504 0.08192c0 0 3.7888 1.29024 10.45504 3.55328c3.25632 1.14688 7.23968 2.53952 11.776 4.1472 c4.61824 1.32096 9.96352 2.47808 15.63648 3.8912c5.60128 1.61792 11.89888 2.57024 18.54464 3.3792c3.25632 0.47104 6.61504 0.98304 10.05568 1.49504 c3.47136 0.36864 7.04512 0.4608 10.61888 0.7168c3.59424 0.22528 7.2192 0.45056 10.89536 0.67584c3.69664 -0.02048 7.44448 -0.0512 11.20256 -0.08192 c7.46496 0.21504 15.104 -0.43008 22.6816 -1.09568c15.1552 -1.06496 29.85984 -6.05184 43.66336 -8.35584c13.86496 -2.304 27.1872 -2.94912 38.95296 -3.59424 c11.79648 -0.33792 21.9648 -0.5632 29.40928 -0.19456c7.41376 0.26624 11.97056 0.72704 11.97056 0.72704l1.1264 0.43008C381.44 226.39616 381.696 227.86048 380.95872 228.93568z"/><glyph unicode="&#xE00D;" glyph-name="cloudy1" horiz-adv-x="655" d="M573.52192 222.63808c0 -11.30496 9.07264 -20.48 20.6848 -20.48h40.5504c11.42784 0 20.6848 9.09312 20.6848 20.48c0 11.32544 -9.07264 20.48 -20.6848 20.48h-40.5504 C582.77888 243.11808 573.52192 234.04544 573.52192 222.63808zM564.96128 177.41824c-3.52256 9.33888 -8.04864 18.16576 -13.43488 26.35776C552.48896 209.96096 552.96 216.28928 552.96 222.72c0 67.85024 -55.05024 122.88 -122.88 122.88 c-31.39584 0 -60.04736 -11.776 -81.75616 -31.15008C318.99648 334.11072 283.72992 345.6 245.76 345.6c-100.43392 0 -182.14912 -80.36352 -184.27904 -180.28544C24.73984 144.03584 0 104.28416 0 58.88 c0 -67.82976 55.02976 -122.88 122.88 -122.88h409.6c67.82976 0 122.88 55.15264 122.88 122.88C655.36 115.52768 617.0624 163.18464 564.96128 177.41824zM430.08 304.64c37.66272 0 69.40672 -25.41568 78.9504 -60.06784 C488.98048 256.69632 465.48992 263.68 440.32 263.68c-13.12768 0 -25.8048 -1.90464 -37.76512 -5.44768c-6.53312 10.5472 -14.09024 20.35712 -22.528 29.32736C393.8304 298.27072 411.21792 304.64 430.08 304.64zM532.54144 -23.04H122.81856C77.70112 -23.04 40.96 13.63968 40.96 58.88c0 38.76864 26.97216 71.31136 63.22176 79.79008C102.99392 146.0224 102.4 153.57952 102.4 161.28c0 79.17568 64.18432 143.36 143.36 143.36 c64.75776 0 119.48032 -42.94656 137.25696 -101.888C398.76608 215.26528 418.63168 222.72 440.32 222.72c47.43168 0 86.528 -35.84 91.60704 -81.92h0.6144C577.65888 140.8 614.4 104.12032 614.4 58.88 C614.4 13.7216 577.76128 -23.04 532.54144 -23.04zM560.59904 324.1984l28.672 28.69248c8.0896 8.06912 8.192 21.03296 0.16384 29.10208c-8.00768 7.9872 -20.91008 8.04864 -29.12256 -0.14336l-28.672 -28.69248 c-8.0896 -8.06912 -8.192 -21.03296 -0.14336 -29.10208C539.50464 316.06784 552.40704 316.0064 560.59904 324.1984zM430.08 366.08c11.32544 0 20.48 9.07264 20.48 20.6848V427.3152C450.56 438.74304 441.48736 448 430.08 448c-11.32544 0 -20.48 -9.07264 -20.48 -20.6848v-40.5504C409.6 375.33696 418.67264 366.08 430.08 366.08z"/><glyph unicode="&#xE00E;" glyph-name="comment2" horiz-adv-x="512" d="M256 415.328c-140.096 0 -254.048 -93.504 -254.048 -208.512c0 -54.176 26.144 -106.592 72.16 -145.408C63.68 37.76 49.76 15.36 32.608 -5.056 c-3.968 -4.8 -4.864 -11.424 -2.24 -17.056s8.288 -9.184 14.496 -9.184c45.92 0 84.768 11.168 128.896 37.184c21.408 -3.392 63.68 -7.616 82.24 -7.616 c140.096 0 254.048 93.568 254.048 208.576C510.048 321.824 396.096 415.328 256 415.328zM256 30.24c-18.368 0 -66.176 4.928 -82.336 8.096 c-3.904 0.704 -7.968 -0.032 -11.36 -2.048C132.48 18.048 106.464 7.616 78.624 3.2c12 18.176 21.984 37.376 29.76 57.376 c2.592 6.688 0.48 14.24 -5.248 18.56c-44.64 33.824 -69.184 79.2 -69.184 127.68C33.952 304.16 133.568 383.36 256 383.36s222.048 -79.2 222.048 -176.544 S378.432 30.24 256 30.24z"/><glyph unicode="&#xE00F;" glyph-name="delete30" horiz-adv-x="512" d="M393.3696 281.28768L304.08704 192L393.3696 102.71232c13.28128 -13.28128 13.28128 -34.80576 0 -48.08704 c-6.63552 -6.63552 -15.3344 -9.9584 -24.03328 -9.9584c-8.704 0 -17.40288 3.31776 -24.0384 9.9584L256 143.91808l-89.2928 -89.2928 c-6.63552 -6.63552 -15.3344 -9.9584 -24.0384 -9.9584c-8.69888 0 -17.39264 3.31776 -24.03328 9.9584c-13.28128 13.27616 -13.28128 34.80064 0 48.08704L207.91296 192L118.6304 281.28768 c-13.28128 13.28128 -13.28128 34.80576 0 48.08704c13.27616 13.27104 34.7904 13.27104 48.07168 0L256 240.08192l89.2928 89.2928c13.28128 13.27104 34.79552 13.27104 48.07168 0 C406.65088 316.09344 406.65088 294.56896 393.3696 281.28768z"/><glyph unicode="&#xE010;" glyph-name="email20" horiz-adv-x="512" d="M59.53024 327.87456v-276.096h416.51712V327.87456H59.53024zM267.79136 157.37344L96.95232 307.39456h341.67296L267.79136 157.37344zM199.73632 189.8752 L80.01024 84.736V295.0144L199.73632 189.8752zM215.25504 176.24576l52.5312 -46.1312l52.5312 46.1312l118.41536 -103.9872H96.8448L215.25504 176.24576zM335.83616 189.87008 L455.56736 295.0144V84.736L335.83616 189.87008z"/><glyph unicode="&#xE011;" glyph-name="eye63" horiz-adv-x="512" d="M213.95456 160.86016c0 -23.18336 18.85184 -42.02496 42.01472 -42.02496c23.1936 0 42.02496 18.8416 42.02496 42.02496s-18.85184 42.02496 -42.02496 42.02496 C232.8064 202.87488 213.95456 184.04352 213.95456 160.86016zM255.96928 192.63488c17.53088 0 31.78496 -14.26432 31.78496 -31.78496c0 -17.53088 -14.27456 -31.78496 -31.78496 -31.78496 s-31.77472 14.27456 -31.77472 31.78496C224.19456 178.3808 238.44864 192.63488 255.96928 192.63488zM250.84928 139.53024c0 2.82624 2.29376 5.12 5.12 5.12 c8.92928 0 16.19968 7.2704 16.19968 16.20992c0 2.816 2.304 5.12 5.12 5.12c2.82624 0 5.12 -2.304 5.12 -5.12c0 -14.58176 -11.85792 -26.44992 -26.43968 -26.44992 C253.14304 134.41024 250.84928 136.704 250.84928 139.53024zM255.95904 217.18016c-60.8768 0 -109.19936 -50.65728 -111.22688 -52.80768c-1.85344 -1.96608 -1.85344 -5.04832 0 -7.02464 c2.02752 -2.1504 50.35008 -52.81792 111.22688 -52.81792c60.89728 0 109.23008 50.66752 111.2576 52.81792c1.85344 1.96608 1.85344 5.04832 0 7.02464 C365.18912 166.52288 316.85632 217.18016 255.95904 217.18016zM255.95904 114.76992c-47.4624 0 -88.19712 34.77504 -100.1984 46.09024c12.00128 11.3152 52.736 46.08 100.1984 46.08 c47.47264 0 88.2176 -34.7648 100.22912 -46.08C344.17664 149.54496 303.43168 114.76992 255.95904 114.76992zM398.47936 214.40512l-19.75296 -19.75296 c6.88128 -5.41696 10.74176 -9.10336 10.87488 -9.24672c1.93536 -2.048 1.85344 -5.30432 -0.21504 -7.23968c-0.99328 -0.9216 -2.2528 -1.3824 -3.51232 -1.3824 c-1.37216 0 -2.73408 0.54272 -3.72736 1.59744c-0.512 0.54272 -55.63392 53.2992 -127.00672 53.2992c-70.57408 0 -124.80512 -52.75648 -125.30688 -53.28896 c-1.92512 -2.048 -5.16096 -2.17088 -7.23968 -0.21504c-2.05824 1.92512 -2.17088 5.16096 -0.23552 7.2192c0.14336 0.14336 3.96288 3.88096 10.78272 9.3696l-19.64032 19.64032 c-1.9968 1.9968 -1.9968 5.24288 0 7.23968s5.24288 1.9968 7.23968 0l20.62336 -20.62336c11.1104 8.1408 26.63424 17.95072 45.37344 25.98912l-14.57152 26.08128 c-1.3824 2.46784 -0.50176 5.59104 1.96608 6.97344c2.44736 1.36192 5.5808 0.512 6.97344 -1.96608l15.22688 -27.26912c16.39424 6.06208 34.78528 10.3424 54.54848 10.9056v32.6144 c0 2.82624 2.29376 5.12 5.12 5.12s5.12 -2.29376 5.12 -5.12v-32.68608c19.59936 -0.768 37.9392 -5.13024 54.33344 -11.22304l15.45216 27.66848 c1.3824 2.47808 4.48512 3.33824 6.97344 1.96608c2.46784 -1.3824 3.34848 -4.49536 1.96608 -6.97344l-14.7968 -26.50112c18.69824 -8.01792 34.26304 -17.7152 45.44512 -25.7536 l20.7872 20.80768c1.9968 1.9968 5.25312 1.9968 7.23968 0C400.50688 219.65824 400.47616 216.41216 398.47936 214.40512z"/><glyph unicode="&#xE012;" glyph-name="gear" horiz-adv-x="512" d="M509 248c-2 8 -8 13 -16 14l-42 6c-2 6 -1 3 -4 9l26 34c5 6 5 15 1 22c0 1 -11 18 -35 42s-41 35 -42 35c-7 4 -16 4 -22 -1l-34 -26 c-6 3 -3 2 -9 4l-6 42c-1 8 -6 14 -14 16c-1 0 -21 6 -55 6s-54 -6 -55 -6c-8 -2 -13 -8 -14 -16l-6 -42c-6 -2 -3 -1 -9 -4l-34 26c-6 5 -15 5 -22 1 c-1 0 -18 -11 -42 -35s-35 -41 -35 -42c-4 -7 -4 -16 1 -22l26 -34c-3 -6 -2 -4 -4 -10l-42 -5c-8 -1 -14 -6 -16 -14c0 -1 -6 -21 -6 -55s6 -54 6 -55c2 -8 8 -13 16 -14 l42 -6c2 -6 1 -3 4 -9l-26 -34c-5 -6 -5 -15 -1 -22c0 -1 11 -18 35 -42s41 -35 42 -35c7 -4 16 -4 22 1l34 26c6 -3 4 -2 10 -4l5 -42c1 -8 6 -14 14 -16 c1 0 21 -6 55 -6s54 6 55 6c8 2 13 8 14 16l6 42c6 2 3 1 9 4l34 -26c6 -5 15 -5 22 -1c1 0 18 11 42 35s35 41 35 42c4 7 4 16 -1 22l-26 34 c3 6 2 3 4 9l42 6c8 1 14 6 16 14c0 1 6 21 6 55S509 247 509 248zM474 160l-40 -5c-7 -1 -14 -6 -16 -13c-6 -17 -4 -12 -11 -27c-3 -7 -2 -15 2 -21 l25 -31c-5 -6 -12 -15 -22 -25s-18 -17 -24 -22l-32 25c-6 4 -14 5 -21 2c-17 -8 -9 -5 -27 -11c-7 -2 -12 -9 -13 -16l-5 -40c-8 -1 -19 -2 -33 -2s-25 1 -33 2 l-5 40c-1 7 -6 14 -13 16c-17 6 -12 4 -27 11c-7 3 -14 2 -20 -2l-32 -25c-6 5 -15 12 -25 22s-16 18 -21 24l24 32c4 6 5 14 2 21 c-8 15 -5 10 -11 27c-2 7 -9 12 -16 13l-40 5c-1 8 -2 19 -2 33s1 25 2 33l40 5c7 1 14 6 16 13s5 13 5 14c0 0 3 7 6 13c3 7 2 14 -2 20 l-24 32c5 6 11 15 21 25s19 16 25 21l32 -24c6 -4 13 -5 20 -2c15 8 10 5 27 11c7 2 12 9 13 16l5 40c8 1 19 2 33 2s25 -1 33 -2l5 -40 c1 -7 6 -14 13 -16c17 -6 12 -4 27 -11c7 -3 15 -2 21 2l32 24c6 -5 14 -11 24 -21s17 -19 22 -25l-25 -32c-4 -6 -5 -13 -2 -20c8 -17 6 -9 12 -27 c2 -7 8 -12 15 -13l40 -5c1 -8 2 -19 2 -33S475 168 474 160zM257 316c-68 0 -123 -55 -123 -123s55 -123 123 -123s123 55 123 123S325 316 257 316zM257 109c-47 0 -84 37 -84 84s37 84 84 84 s84 -37 84 -84S304 109 257 109z"/><glyph unicode="&#xE013;" glyph-name="home39" horiz-adv-x="512" d="M258.72384 251.24352c-2.00704 1.96608 -5.22752 1.94048 -7.20896 -0.0512L164.68992 163.29728C163.73248 162.33984 163.84 161.03936 163.84 159.68768v-92.16 C163.84 64.69632 164.85376 58.88 167.68 58.88h177.49504C348.00128 58.88 348.16 64.69632 348.16 67.52768v92.16c0 1.3824 0.512 2.69824 -0.47616 3.6608L258.72384 251.24352zM337.92 69.12 h-49.06496H221.44H174.08V157.57312l80.6912 82.80064L337.92 157.53216V69.12zM382.93504 167.56736l-124.16 124.58496c-0.96256 0.96768 -2.35008 1.44384 -3.64544 1.50528c-1.36704 -0.00512 -3.05152 -0.55808 -4.00896 -1.536L204.8 245.38112v27.26912 C204.8 275.47136 203.25376 273.92 200.42752 273.92h-30.71488C166.8864 273.92 163.84 275.47136 163.84 272.64512v-68.93568l-35.1744 -36.16768c-1.98144 -2.0224 -1.76128 -5.25824 0.25088 -7.2448 c2.01728 -1.98144 5.3504 -1.95072 7.33696 0.06656l37.02784 37.62688c0 0 0.03072 0.00512 0.03072 0.00512l81.84832 83.26656l120.51456 -120.92416 c0.9984 -1.00352 2.31936 -1.50528 3.63008 -1.50528c1.3056 0 2.61632 0.49664 3.61472 1.49504C384.9216 162.32448 384.93184 165.56032 382.93504 167.56736zM174.08 263.68h20.48v-28.71808 l-20.48 -20.83328V263.68z"/><glyph unicode="&#xE014;" glyph-name="incoming1" horiz-adv-x="512" d="M230.448 365.688L230.448 335.984L450.304 335.984L450.304 48.016L230.448 48.016L230.448 18.304L480 18.304L480 365.688ZM253.024 87.144L277.064 63.096L405.976 192.008L277.064 320.904L253.024 296.888L340.896 209L32 209L32 175.016L340.888 175.016Z"/><glyph unicode="&#xE015;" glyph-name="incoming4" horiz-adv-x="512" d="M239.376 361.336L239.376 350.136L466 350.136L466 33.864L239.376 33.864L239.376 22.664L477.184 22.664L477.184 361.336ZM266.672 83.912L277.712 72.864L396.856 192.008L277.712 311.152L266.672 300.12L366.96 199.824L34.816 199.824L34.816 184.2L366.952 184.2Z"/><glyph unicode="&#xE016;" glyph-name="instagram" horiz-adv-x="512" d="M447.44513488372 448H64.564390697674C28.910139534884 448 0 419.08986046512 0 383.44513488372v-382.87121860465c0 -35.654251162791 28.910139534884 -64.564390697674 64.564390697674 -64.564390697674h382.88074418605c35.6352 0 64.545339534884 28.910139534884 64.545339534884 64.564390697674 V383.44513488372C512 419.08986046512 483.08986046512 448 447.44513488372 448zM256 267.01395348837c41.3696 0 75.013953488372 -33.653879069767 75.013953488372 -75.013953488372c0 -41.3696 -33.644353488372 -75.013953488372 -75.013953488372 -75.013953488372 c-41.360074418605 0 -75.013953488372 33.644353488372 -75.013953488372 75.013953488372C180.98604651163 233.3600744186 214.6399255814 267.01395348837 256 267.01395348837zM452.46511627907 27.855181395349c0 -17.822362790698 -16.584037209302 -32.320297674419 -34.415925581395 -32.320297674419H95.208186046512 c-17.841413953488 0 -35.673302325581 14.488409302326 -35.673302325581 32.320297674419V189.27568372093c0 17.822362790698 17.831888372093 32.491758139535 35.673302325581 32.491758139535h17.993823255814c3.3911069767442 0 6.6202790697674 -1.4669395348837 8.8683162790698 -4.0102697674419 c2.238511627907 -2.5528558139535 3.2863255813953 -5.953488372093 2.8481488372093 -9.3160186046512C124.21358139535 203.0592 123.83255813953 197.57246511628 123.83255813953 192c0 -72.870697674419 59.287218604651 -132.16744186047 132.16744186047 -132.16744186047 c72.870697674419 0 132.16744186047 59.296744186047 132.16744186047 132.16744186047c0 5.5724651162791 -0.38102325581395 11.0592 -1.0763906976744 16.441153488372c-0.4477023255814 3.3720558139535 0.59058604651163 6.7631627906977 2.8290976744186 9.3255441860465 c2.2480372093023 2.5528558139535 5.4772093023256 4.0102697674419 8.8873674418605 4.0102697674419h19.2512c17.831888372093 0 34.415925581395 -14.669395348837 34.415925581395 -32.50128372093V27.855181395349zM452.47464186047 325.50102325581L452.47464186047 325.50102325581 c-0.0095255813953488 -17.831888372093 -14.469358139535 -32.291720930233 -32.291720930233 -32.291720930233h-30.681897674419c-17.841413953488 0 -32.301246511628 14.45983255814 -32.301246511628 32.291720930233V356.18292093023c0 17.822362790698 14.45983255814 32.282195348837 32.301246511628 32.282195348837h30.681897674419 c17.822362790698 0 32.291720930233 -14.45983255814 32.291720930233 -32.282195348837V325.50102325581z"/><glyph unicode="&#xE017;" glyph-name="ipad6" horiz-adv-x="512" d="M291.75808 -0.30207999999999c-9.60512 0 -17.41312 7.808 -17.41312 17.41312c0 9.6 7.808 17.408 17.41312 17.408c9.6 0 17.408 -7.808 17.408 -17.408 C309.1712 7.51104 301.35808 -0.30207999999999 291.75808 -0.30207999999999zM291.75808 24.28416c-3.95264 0 -7.17312 -3.21536 -7.17312 -7.168s3.22048 -7.17312 7.17312 -7.17312 s7.168 3.22048 7.168 7.17312S295.71584 24.28416 291.75808 24.28416zM431.36 -23.04H152.15616c-2.82624 0 -5.12 2.28864 -5.12 5.12V362.07104c0 2.82624 2.29376 5.12 5.12 5.12H431.36c2.83136 0 5.12 -2.29376 5.12 -5.12V-17.92 C436.48 -20.75136 434.19136 -23.04 431.36 -23.04zM157.27616 -12.8H426.24V356.95104H157.27616V-12.8zM415.91808 46.08h-248.32c-2.82624 0 -5.12 2.28864 -5.12 5.12V339.2c0 2.82624 2.29376 5.12 5.12 5.12h248.32c2.83136 0 5.12 -2.29376 5.12 -5.12V51.2 C421.03808 48.36864 418.74944 46.08 415.91808 46.08zM172.71808 56.32h238.08V334.08h-238.08V56.32z"/><glyph unicode="&#xE018;" glyph-name="justified" horiz-adv-x="585" d="M0 118.85714285714h585.14285714286v-73.142857142857h-585.14285714286zM0 228.57142857143h585.14285714286v-73.142857142857h-585.14285714286zM0 338.28571428571h585.14285714286v-73.142857142857h-585.14285714286zM0 448h585.14285714286v-73.142857142857h-585.14285714286zM0 9.1428571428571h585.14285714286v-73.142857142857h-585.14285714286z"/><glyph unicode="&#xE019;" glyph-name="list2" horiz-adv-x="605" d="M0 448l154.64 0l0 -127.96l-140 0ZM0 256l154.64 0l0 -128l-140 0ZM0 64.02l154.64 0l0 -127.96l-140 0ZM218.66 255.96l386.6 0l0 -128l-380 0ZM218.66 64.02l386.6 0l0 -128l-380 0ZM218.66 448l386.6 0l0 -128l-380 0Z"/><glyph unicode="&#xE01A;" glyph-name="list27" horiz-adv-x="512" d="M0 448h128v-128H0V448zM192 416h320v-64H192V416zM0 256h128v-128H0V256zM192 224h320v-64H192V224zM0 64h128v-128H0V64zM192 32 h320v-64H192V32z"/><glyph unicode="&#xE01B;" glyph-name="list41" horiz-adv-x="512" d="M238.05952 279.32672c65.72032 0 59.7504 0 125.47072 0c16.50688 0 16.50688 25.6 0 25.6c-65.72032 0 -59.7504 0 -125.47072 0 C221.55264 304.92672 221.55264 279.32672 238.05952 279.32672zM363.53024 223.85664c-65.72032 0 -59.7504 0 -125.47072 0c-16.50688 0 -16.50688 -25.6 0 -25.6c65.72032 0 59.7504 0 125.47072 0 C380.04736 198.25664 380.04736 223.85664 363.53024 223.85664zM363.53024 147.23072c-65.72032 0 -59.7504 0 -125.47072 0c-16.50688 0 -16.50688 -25.6 0 -25.6c65.72032 0 59.7504 0 125.47072 0 C380.04736 121.63072 380.04736 147.23072 363.53024 147.23072zM363.53024 66.16064c-65.72032 0 -59.7504 0 -125.47072 0c-16.50688 0 -16.50688 -25.6 0 -25.6c65.72032 0 59.7504 0 125.47072 0 C380.04736 40.56064 380.04736 66.16064 363.53024 66.16064zM191.22176 311.35744H155.5456c-1.29024 0 -2.34496 -0.78848 -2.34496 -1.76128v-35.97312c0 -0.96256 1.04448 -1.75104 2.34496 -1.75104h35.67616 c1.29024 0 2.34496 0.78848 2.34496 1.75104v35.97312C193.56672 310.56896 192.52224 311.35744 191.22176 311.35744zM189.04064 231.4752h-35.67616c-1.29024 0 -2.34496 -0.78848 -2.34496 -1.76128v-35.97312c0 -0.96256 1.04448 -1.75104 2.34496 -1.75104h35.67616 c1.29024 0 2.34496 0.78848 2.34496 1.75104v35.97312C191.3856 230.68672 190.34112 231.4752 189.04064 231.4752zM189.04064 153.77408h-35.67616c-1.29024 0 -2.34496 -0.78848 -2.34496 -1.76128v-35.97312c0 -0.96256 1.04448 -1.75104 2.34496 -1.75104h35.67616 c1.29024 0 2.34496 0.78848 2.34496 1.75104v35.97312C191.3856 152.97536 190.34112 153.77408 189.04064 153.77408zM189.04064 73.10336h-35.67616c-1.29024 0 -2.34496 -0.78848 -2.34496 -1.76128v-35.97312c0 -0.96256 1.04448 -1.75104 2.34496 -1.75104h35.67616 c1.29024 0 2.34496 0.78848 2.34496 1.75104v35.97312C191.3856 72.31488 190.34112 73.10336 189.04064 73.10336zM367.63648 422.68672H78.34624v-461.38368h355.30752V358.68672L367.63648 422.68672zM402.93376 -7.96672H109.06624V391.96672h242.74944v-48.7424h51.11808V-7.96672z"/><glyph unicode="&#xE01C;" glyph-name="little16" horiz-adv-x="512" d="M379.008 158.72L267.04 282.784c-6.24 6.944 -16.352 6.944 -22.56 0l-0.384 -0.64L132.352 158.72c-6.24 -6.944 -6.24 -18.208 0 -25.152 l0.192 -0.16C135.456 130.048 139.456 128 143.968 128h223.456c4.576 0 8.64 2.176 11.488 5.632l0.064 -0.064 C385.248 140.512 385.248 151.776 379.008 158.72z"/><glyph unicode="&#xE01D;" glyph-name="location4" horiz-adv-x="512" d="M256.032 164.064c52.944 0 96 43.072 96 96s-43.056 96 -96 96 c-52.944 0 -96 -43.056 -96 -96S203.088 164.064 256.032 164.064zM256.032 340.064c44.128 0 80 -35.872 80 -80s-35.872 -80 -80 -80c-44.128 0 -80 35.872 -80 80 S211.904 340.064 256.032 340.064zM256 448C150.112 448 64 362.944 64 255.984c0 -112 96.016 -226.576 166.016 -307.104 C230.272 -51.44 241.504 -64 255.392 -64c0.032 0 1.168 0 1.232 0c13.872 0 25.12 12.56 25.376 12.88 c70.032 80.528 166.032 195.088 166.032 307.104C448.032 362.944 361.904 448 256 448zM257.872 -30.128c-0.336 -0.32 -1.312 -1.024 -2.16 -1.568 c-0.16 0.432 -1.344 1.376 -2.064 2.128C195.008 37.904 96 151.776 96 255.984C96 344.208 167.792 416 256 416c88.256 0 160.032 -71.792 160.032 -160.032 C416.032 151.776 317.024 37.904 257.872 -30.128z"/><glyph unicode="&#xE01E;" glyph-name="magnifying42" horiz-adv-x="512" d="M398.12096 78.82752l-62.6176 62.6176c15.22688 21.17632 23.58272 46.45888 23.58272 73.08288c0 33.536 -13.056 65.0752 -36.79232 88.80128 c-23.7056 23.71584 -55.25504 36.80256 -88.81152 36.80256c-33.54624 0 -65.09568 -13.056 -88.81152 -36.80256c-23.71584 -23.7056 -36.78208 -55.25504 -36.78208 -88.80128 c0 -33.54624 13.056 -65.08544 36.78208 -88.82176c23.71584 -23.71584 55.25504 -36.79232 88.81152 -36.79232c26.61376 0 51.88608 8.32512 73.0624 23.57248l62.6176 -62.6176 c4.01408 -4.00384 9.23648 -6.00064 14.47936 -6.00064s10.48576 1.9968 14.47936 6.00064C406.1184 57.86624 406.1184 70.83008 398.12096 78.82752zM173.63968 154.66496 c-15.99488 15.99488 -24.79104 37.26336 -24.79104 59.86304s8.79616 43.85792 24.79104 59.8528c15.98464 15.99488 37.23264 24.80128 59.84256 24.80128s43.86816 -8.8064 59.8528 -24.80128 s24.79104 -37.25312 24.79104 -59.8528s-8.79616 -43.85792 -24.79104 -59.86304c-15.99488 -15.98464 -37.23264 -24.7808 -59.8528 -24.7808C210.86208 129.8944 189.60384 138.69056 173.63968 154.66496z"/><glyph unicode="&#xE01F;" glyph-name="measuring7" horiz-adv-x="606" d="M0 -62.107927508353h142.06094968108V446.10792750835H0V-62.107927508353zM21.706996051433 -13.2769059431h30.247241065101v7.9181937835375H21.706996051433v20.035233370457h30.247241065101v7.8922749822821H21.706996051433v17.871013465627h30.247241065101v7.9052343829098H21.706996051433 v17.754378859978h62.451351624987V78.78667611623H21.706996051433v21.629239647666h30.247241065101V108.33410954743H21.706996051433v20.009314569201h30.247241065101v7.9052343829098H21.706996051433v17.871013465627h30.247241065101v7.9181937835375H21.706996051433v17.754378859978h62.451351624987v12.674293813911H21.706996051433 v25.568897438493h30.247241065101v7.9181937835375H21.706996051433v19.996355168573h30.247241065101v7.9181937835375H21.706996051433v17.871013465627h30.247241065101v7.9052343829098H21.706996051433v17.754378859978h62.451351624987v12.674293813911H21.706996051433V329.68067226891h38.463501063076V337.58590665182H21.706996051433 V357.60818062165h38.463501063076v7.9052343829098H21.706996051433V383.39738787081h38.463501063076v7.9052343829098H21.706996051433V424.40093145692h98.633998177584v-464.77594411258H21.706996051433V-13.2769059431zM180.91323276298 448v-512h425.47008200871L180.91323276298 448zM202.63318821505 -28.918902500759h30.247241065101v7.7367621747494h-30.247241065101v19.568694947859h30.247241065101v7.7367621747494h-30.247241065101v17.495190847423h30.247241065101v7.7238027741217h-30.247241065101 v17.365596841146h62.43839222436v12.389187000101h-62.43839222436v21.136782423813h30.247241065101v7.7367621747494h-30.247241065101v19.568694947859h30.247241065101v7.7367621747494h-30.247241065101v17.482231446796h30.247241065101v7.7497215753771h-30.247241065101v17.352637440518h62.43839222436v12.376227599474 h-62.43839222436v24.998683810874h30.247241065101v7.7367621747494h-30.247241065101v19.568694947859h30.247241065101V232.22597954845h-30.247241065101v17.495190847423h30.247241065101v7.7238027741217h-30.247241065101v17.378556241774h62.43839222436V287.17383820998h-62.43839222436v19.166953528399h38.463501063076 v7.7238027741217h-38.463501063076V333.64624886099h38.463501063076V341.37005163511h-38.463501063076V388.19236610307L560.76622456211 -42.772501771793H202.63318821505V-28.918902500759zM278.35496608282 195.90077958894v-175.83314771692h146.14316087881L278.35496608282 195.90077958894zM300.07492153488 136.11906449327l78.793155816543 -94.810974992407h-78.793155816543V136.11906449327z"/><glyph unicode="&#xE020;" glyph-name="menu29" horiz-adv-x="512" d="M14.773333333333 439.27466666667l482.46933333333 0l0 -75.808l-480 0ZM15.050666666667 302.096l481.904 0l0 -75.813333333333l-480 0ZM14.773333333333 157.70133333333l482.46933333333 0l0 -75.813333333333l-480 0ZM15.050666666667 20.517333333333l481.904 0l0 -75.808l-480 0Z"/><glyph unicode="&#xE021;" glyph-name="mobile53" horiz-adv-x="512" d="M383.584 -16.064V419.752c0 11.92 -9.688 21.608 -21.608 21.608H131.984c-11.92 0 -21.608 -9.688 -21.608 -21.608v-435.816 c0 -11.92 9.688 -21.608 21.608 -21.608h229.992C373.896 -37.672 383.584 -27.984 383.584 -16.064zM371.8 -16.064 c0 -5.416 -4.408 -9.824 -9.824 -9.824H131.984c-5.416 0 -9.824 4.4 -9.824 9.824V419.752c0 5.416 4.408 9.824 9.824 9.824h229.992 c5.416 0 9.824 -4.4 9.824 -9.824V-16.064zM356.184 397.96H137.776c-1.632 0 -2.952 -1.312 -2.952 -2.944v-379.368c0 -1.632 1.32 -2.952 2.952 -2.952h218.408 c1.632 0 2.952 1.32 2.952 2.952V395.016C359.136 396.64 357.816 397.96 356.184 397.96zM345.24 18.584H148.72c-4.416 0 -8 3.584 -8 8V384.064 c0 4.416 3.584 8 8 8h196.512c4.416 0 8 -3.584 8 -8v-357.48C353.24 22.168 349.656 18.584 345.24 18.584zM274.336 2.768h-54.72c-1.624 0 -2.944 -1.32 -2.944 -2.944v-14.592c0 -1.632 1.32 -2.944 2.944 -2.944h54.72 c1.624 0 2.944 1.32 2.944 2.944v14.592C277.288 1.456 275.968 2.768 274.336 2.768zM263.392 -11.824h-32.824 c-4.416 0 -8 1.952 -8 4.352c0 2.4 3.584 4.352 8 4.352h32.824c4.416 0 8 -1.944 8 -4.352C271.392 -9.872 267.816 -11.824 263.392 -11.824z"/><glyph unicode="&#xE022;" glyph-name="new6" horiz-adv-x="512" d="M480 352h-112.512C349.824 352 329.504 343.008 320 320c0 0 -4.16 -29.344 -32 -32H64C46.336 288 32 274.176 32 256.512V-32c0 -17.664 14.336 -32 32 -32h416 c17.664 0 32 14.336 32 32V320C512 337.664 497.664 352 480 352zM480 256.512V-32H64V256h224l3.072 0.16c30.016 2.848 48.576 23.872 57.12 45.472 C356.512 322.496 371.008 320 371.008 320H480V256.512zM352 128H288V192c0 8.832 -7.2 16 -16 16C263.168 208 256 200.832 256 192v-64H192c-8.832 0 -16 -7.2 -16 -16S183.168 96 192 96h64v-64 c0 -8.8 7.168 -16 16 -16C280.8 16 288 23.2 288 32v64h64c8.8 0 16 7.2 16 16S360.8 128 352 128z"/><glyph unicode="&#xE023;" glyph-name="oil2" horiz-adv-x="512" d="M449.256 338.64c0 25.968 -21.128 47.096 -47.096 47.096h-34.648H260V404.872c0 13.256 -8.896 24 -19.88 24h-84.72 c-10.976 0 -19.88 -10.744 -19.88 -24v-19.144h-25.68c-25.968 0 -47.096 -21.128 -47.096 -47.096c0 -18.96 11.264 -35.336 27.448 -42.8v-31.056 c-16.184 -7.464 -27.448 -23.84 -27.448 -42.8c0 -18.96 11.264 -35.336 27.448 -42.8v-31.056c-16.184 -7.456 -27.448 -23.84 -27.448 -42.8 c0 -18.96 11.264 -35.336 27.448 -42.8v-24.192c-16.184 -7.464 -27.448 -23.84 -27.448 -42.8c0 -25.968 21.128 -47.096 47.096 -47.096H402.16 c25.968 0 47.096 21.128 47.096 47.096c0 18.96 -11.264 35.336 -27.448 42.8v24.192c16.184 7.464 27.448 23.84 27.448 42.8 c0 18.96 -11.264 35.336 -27.448 42.8v31.056c16.184 7.464 27.448 23.84 27.448 42.8c0 18.96 -11.264 35.336 -27.448 42.8V295.84 C437.992 303.296 449.256 319.672 449.256 338.64zM402.16 206.888h-12.352v-86.456h12.352c8.336 0 15.096 -6.76 15.096 -15.096 c0 -8.336 -6.76 -15.096 -15.096 -15.096h-12.352v-79.6h12.352c8.336 0 15.096 -6.76 15.096 -15.096c0 -8.336 -6.76 -15.096 -15.096 -15.096H109.84 c-8.336 0 -15.096 6.76 -15.096 15.096c0 8.336 6.76 15.096 15.096 15.096h12.352v79.6H109.84c-8.336 0 -15.096 6.76 -15.096 15.096 c0 8.336 6.76 15.096 15.096 15.096h12.352V206.888H109.84c-8.336 0 -15.096 6.76 -15.096 15.096s6.76 15.096 15.096 15.096h12.352V323.536H109.84 c-8.336 0 -15.096 6.76 -15.096 15.096c0 8.336 6.76 15.096 15.096 15.096h25.68h8.968H260h107.504h34.648c8.336 0 15.096 -6.76 15.096 -15.096 c0 -8.336 -6.76 -15.096 -15.096 -15.096h-12.352v-86.456h12.352c8.336 0 15.096 -6.76 15.096 -15.096S410.496 206.888 402.16 206.888zM256 309.968c0 0 -8.528 -12.144 -20.272 -31.376C190.672 204.84 98.104 26.576 256 26.576c182.088 0 31.088 237.072 4 277.52 C257.472 307.864 256 309.968 256 309.968zM266.784 77.056c21.416 9.888 24.832 30.088 19.576 51.488c-4.448 18.128 23.456 25.816 27.912 7.696 c8.12 -33.064 0.344 -68.84 -32.88 -84.176C264.568 44.304 249.856 69.24 266.784 77.056z"/><glyph unicode="&#xE024;" glyph-name="paragraph14" horiz-adv-x="512" d="M413.02016 16.20992H98.97984c-14.14144 0 -25.6 11.45856 -25.6 25.6s11.45856 25.6 25.6 25.6h314.04032c14.14144 0 25.6 -11.45856 25.6 -25.6 S427.1616 16.20992 413.02016 16.20992zM413.02016 91.31008H98.97984c-14.14144 0 -25.6 11.45856 -25.6 25.6s11.45856 25.6 25.6 25.6h314.04032 c14.14144 0 25.6 -11.45856 25.6 -25.6S427.1616 91.31008 413.02016 91.31008zM413.02016 166.41024H98.97984c-14.14144 0 -25.6 11.45856 -25.6 25.6s11.45856 25.6 25.6 25.6 h314.04032c14.14144 0 25.6 -11.45856 25.6 -25.6S427.1616 166.41024 413.02016 166.41024zM413.02016 241.48992H98.97984c-14.14144 0 -25.6 11.45856 -25.6 25.6 s11.45856 25.6 25.6 25.6h314.04032c14.14144 0 25.6 -11.45856 25.6 -25.6S427.1616 241.48992 413.02016 241.48992zM413.02016 316.59008H98.97984 c-14.14144 0 -25.6 11.45856 -25.6 25.6s11.45856 25.6 25.6 25.6h314.04032c14.14144 0 25.6 -11.45856 25.6 -25.6S427.1616 316.59008 413.02016 316.59008z"/><glyph unicode="&#xE025;" glyph-name="phone12" horiz-adv-x="512" d="M240 -7.936c0 4.432 3.584 8 8 8h16c4.4 0 8 -3.568 8 -8c0 -4.4 -3.6 -8 -8 -8h-16 C243.584 -15.936 240 -12.336 240 -7.936zM280 400h-48C227.568 400 224 396.432 224 392C224 387.584 227.568 384 232 384h48C284.4 384 288 387.584 288 392 C288 396.432 284.4 400 280 400zM432 400v-416c0 -26.496 -21.504 -48 -48 -48H128c-26.512 0 -48 21.472 -48 48V400c0 26.512 21.472 48 48 48h256C410.496 448 432 426.528 432 400zM400 16.064H112V-16c0 -8.848 7.168 -16 16 -16h256c8.816 0 16 7.184 16 16V16.064zM400 352H112v-319.936h288V352zM400 400c0 8.832 -7.184 16 -16 16H128 C119.168 416 112 408.832 112 400v-32h288V400z"/><glyph unicode="&#xE026;" glyph-name="right20" horiz-adv-x="319" d="M304.59613815611 228.8764391261L99.559423443024 433.91315383918c-18.821140422446 18.821140422446 -49.594053123017 18.821140422446 -68.345571571027 0L14.08684616082 416.80935545281c-18.797933097634 -18.797933097634 -18.797933097634 -49.570845798205 0 -68.322364246215l156.46378388179 -156.46378388179 l-156.46378388179 -156.46378388179c-18.797933097634 -18.797933097634 -18.797933097634 -49.570845798205 0 -68.299156921403l17.103798386366 -17.103798386366c18.797933097634 -18.821140422446 49.570845798205 -18.821140422446 68.345571571027 0l205.03671471308 205.05992203789 c10.095186293174 10.071978968362 14.574199981869 23.601849333696 13.854772912701 36.853231801287C319.17033813797 205.2745897924 314.69132444928 218.80446015774 304.59613815611 228.8764391261z"/><glyph unicode="&#xE027;" glyph-name="screw5" horiz-adv-x="512" d="M127.85664 255.93856h42.19904l-41.60512 -13.58848C128.14336 248.54016 127.95392 253.23008 127.85664 255.93856zM130.16064 213.85728l64.79872 21.14048c-0.29696 -5.3504 -0.66048 -11.4176 -1.11104 -18.03776l-62.33088 -20.72064C131.00544 202.368 130.54976 208.29696 130.16064 213.85728 zM175.62112 87.02976l-23.29088 -12.87168c-1.83808 4.94592 -3.54816 10.44992 -5.13024 16.41472l33.35168 16.95232C179.05152 100.2496 177.408 93.3632 175.62112 87.02976zM181.82144 113.90976l-35.90656 -18.24256c-1.57696 6.45632 -3.0208 13.33248 -4.34688 20.49024l0.15872 -0.3072l44.22144 23.11168 C184.71936 130.39104 183.35232 121.96864 181.82144 113.90976zM186.82368 145.19296l-46.15168 -24.1152c-1.18272 6.79424 -2.26304 13.79328 -3.2512 20.86912l51.70176 21.9136C188.42624 157.65504 187.66336 151.40864 186.82368 145.19296zM189.76768 169.69728l-53.05856 -22.48704c-0.86528 6.55872 -1.65888 13.14304 -2.37568 19.67104l57.60512 25.26208 C191.3088 184.88832 190.592 177.35168 189.76768 169.69728zM161.90464 55.81312c-2.76992 3.38944 -5.30944 8.02816 -7.65952 13.55264l19.26144 10.63936C170.1376 69.632 166.2976 61.19424 161.90464 55.81312zM192.42496 197.94944l-58.65984 -25.72288c-0.6656 6.37952 -1.26464 12.66688 -1.80224 18.75968l61.50144 20.44416C193.152 207.104 192.80896 202.60352 192.42496 197.94944zM195.2512 240.48128l-65.44384 -21.35552c-0.44032 6.62528 -0.7936 12.672 -1.08032 17.92512l57.8304 18.88768h9.39008 C195.83488 252.96896 195.61472 247.56736 195.2512 240.48128zM201.23136 261.05856H122.56768h-26.06592c1.59744 15.4368 17.47968 29.14816 40.832 35.17952v-24.08448h51.2v24.08448c23.35232 -6.03136 39.23456 -19.74272 40.832 -35.17952 H201.23136zM272.27648 288.98304h98.12992c6.65088 0 12.1856 -4.7872 13.3888 -11.08992H258.88256C260.08576 284.20096 265.62048 288.98304 272.27648 288.98304zM321.33632 56.43776c-26.92096 32.9472 -33.2544 178.87744 -34.03776 200.12544h68.09088C354.60096 235.3152 348.2624 89.38496 321.33632 56.43776zM357.70368 261.6832H284.97408c-10.34752 2.66752 -21.20192 7.2448 -24.97024 11.08992h122.65984C378.90048 268.93312 368.04608 264.35072 357.70368 261.6832z"/><glyph unicode="&#xE028;" glyph-name="search19" horiz-adv-x="757" d="M605.87835616438 16.569863013699L507.87945205479 114.56876712329c23.618630136986 34.093589041096 35.433205479452 72.097315068493 35.433205479452 114.00065753425c0 27.237698630137 -5.2883287671233 53.286575342466 -15.861479452055 78.143123287671 c-10.569643835616 24.860054794521 -24.856547945205 46.286904109589 -42.857205479452 64.287561643836s-39.424 32.287561643836 -64.280547945205 42.857205479452c-24.863561643836 10.573150684932 -50.912438356164 15.85797260274 -78.150136986301 15.85797260274 c-27.237698630137 0 -53.286575342466 -5.2848219178082 -78.143123287671 -15.85797260274c-24.860054794521 -10.569643835616 -46.286904109589 -24.856547945205 -64.287561643836 -42.857205479452c-18.000657534247 -18.000657534247 -32.287561643836 -39.43101369863 -42.857205479452 -64.287561643836 c-10.573150684932 -24.860054794521 -15.85797260274 -50.905424657534 -15.85797260274 -78.143123287671c0 -27.237698630137 5.2848219178082 -53.279561643836 15.85797260274 -78.143123287671c10.569643835616 -24.856547945205 24.856547945205 -46.279890410959 42.857205479452 -64.280547945205 c18.000657534247 -18.004164383562 39.43101369863 -32.287561643836 64.287561643836 -42.860712328767c24.860054794521 -10.573150684932 50.905424657534 -15.85797260274 78.143123287671 -15.85797260274c41.910356164384 0 79.910575342466 11.814575342466 114.00416438356 35.433205479452l97.998904109589 -97.711342465753 c6.8558904109589 -7.2381369863014 15.419616438356 -10.857205479452 25.712219178082 -10.857205479452c9.9033424657534 0 18.481095890411 3.6190684931507 25.712219178082 10.857205479452c7.2381369863014 7.2346301369863 10.857205479452 15.808876712329 10.857205479452 25.712219178082 C616.45150684932 0.95035616438356 612.93063013699 9.524602739726 605.87835616438 16.569863013699zM432.5944109589 138.14531506849c-25.049424657534 -25.049424657534 -55.190794520548 -37.572383561644 -90.431123287671 -37.572383561644 c-35.236821917808 0 -65.378191780822 12.526465753425 -90.427616438356 37.572383561644c-25.049424657534 25.049424657534 -37.572383561644 55.187287671233 -37.572383561644 90.427616438356c0 35.236821917808 12.526465753425 65.381698630137 37.572383561644 90.427616438356 c25.045917808219 25.049424657534 55.190794520548 37.572383561644 90.427616438356 37.572383561644c35.236821917808 0 65.378191780822 -12.526465753425 90.431123287671 -37.572383561644c25.049424657534 -25.045917808219 37.575890410959 -55.190794520548 37.575890410959 -90.427616438356 C470.17030136986 193.33260273973 457.64032876712 163.19473972603 432.5944109589 138.14531506849z"/><glyph unicode="&#xE029;" glyph-name="shopping16" horiz-adv-x="512" d="M422.544 299.32h-330.4l-9.472 47.048c-1.304 6.496 -7.696 10.648 -14.136 9.4c-6.504 -1.312 -10.704 -7.632 -9.4 -14.136l45.088 -224 c1.136 -5.6 6.056 -9.632 11.768 -9.632h27.128C133.856 99.576 128 87.48 128 74c0 -25.368 20.632 -46 46 -46 c25.368 0 46 20.632 46 46c0 13.48 -5.856 25.576 -15.128 34h84.248c-9.264 -8.424 -15.128 -20.52 -15.128 -34 c0 -25.368 20.632 -46 46 -46c25.368 0 46 20.632 46 46c0 13.48 -5.856 25.576 -15.128 34H400c6.624 0 12 5.376 12 12 s-5.376 12 -12 12H125.824l-8.056 40h280.128L422.544 299.32zM174 52c-12.136 0 -22 9.864 -22 22S161.864 96 174 96 c12.136 0 22 -9.864 22 -22S186.136 52 174 52zM320 52c-12.136 0 -22 9.864 -22 22S307.864 96 320 96 c12.136 0 22 -9.864 22 -22S332.136 52 320 52zM378.104 196H112.944l-15.968 79.32h296.48L378.104 196z"/><glyph unicode="&#xE02A;" glyph-name="snowflake" horiz-adv-x="447" d="M447.47967479675 318.9593495935l-22.894308943089 13.528455284553l-62.439024390244 -33.30081300813v44.747967479675l-16.650406504065 9.3658536585366l-15.609756097561 -9.3658536585366v-69.723577235772l-42.666666666667 -21.853658536585v47.869918699187l-42.666666666667 -23.934959349593v44.747967479675l64.520325203252 32.260162601626V375.15447154472l-22.894308943089 12.487804878049l-41.626016260163 -21.853658536585V433.43089430894L223.73983739837 448l-20.813008130081 -14.569105691057v-67.642276422764l-36.422764227642 21.853658536585l-17.691056910569 -11.447154471545 v-23.934959349593l54.113821138211 -31.219512195122v-44.747967479675l-42.666666666667 22.894308943089v-46.829268292683l-39.544715447154 22.894308943089l1.0406504065041 65.560975609756L100.94308943089 353.30081300813l-15.609756097561 -12.487804878049v-42.666666666667l-60.357723577236 33.30081300813L0 320v-27.056910569106l59.317073170732 -32.260162601626l-38.50406504065 -21.853658536585v-23.934959349593l21.853658536585 -10.406504065041l55.154471544715 32.260162601626l38.50406504065 -21.853658536585l-38.50406504065 -23.934959349593l39.544715447154 -22.894308943089h1.0406504065041l-38.50406504065 -22.894308943089 l-56.19512195122 33.30081300813l-22.894308943089 -12.487804878049v-24.975609756098l39.544715447154 -18.731707317073L0 87.934959349593v-27.056910569106l26.016260162602 -10.406504065041l59.317073170732 33.30081300813v-42.666666666667l14.569105691057 -11.447154471545l17.691056910569 12.487804878049v64.520325203252l42.666666666667 21.853658536585v-46.829268292683l42.666666666667 26.016260162602v-44.747967479675l-54.113821138211 -31.219512195122v-23.934959349593l17.691056910569 -11.447154471545l36.422764227642 21.853658536585v-67.642276422764l20.813008130081 -14.569105691057l20.813008130081 14.569105691057v67.642276422764 l36.422764227642 -21.853658536585l17.691056910569 9.3658536585366v26.016260162602l-54.113821138211 31.219512195122v44.747967479675l42.666666666667 -23.934959349593v43.707317073171l42.666666666667 -22.894308943089v-64.520325203252l16.650406504065 -11.447154471545l15.609756097561 11.447154471545v42.666666666667l58.276422764228 -32.260162601626l27.056910569106 11.447154471545v26.016260162602l-56.19512195122 34.341463414634l35.382113821138 19.772357723577v22.894308943089l-19.772357723577 12.487804878049l-57.235772357724 -31.219512195122l-40.585365853659 20.813008130081l39.544715447154 22.894308943089 l-37.463414634146 23.934959349593l38.50406504065 24.975609756098l57.235772357724 -33.30081300813l19.772357723577 10.406504065041v23.934959349593l-37.463414634146 20.813008130081l58.276422764228 33.30081300813V318.9593495935zM244.55284552846 159.73983739837h-37.463414634146l-19.772357723577 31.219512195122l18.731707317073 33.30081300813h37.463414634146l17.691056910569 -33.30081300813L244.55284552846 159.73983739837z"/><glyph unicode="&#xE02B;" glyph-name="social38" horiz-adv-x="512" d="M416 448H96C42.976 448 0 405.024 0 352v-320c0 -53.024 42.976 -96 96 -96h320c53.024 0 96 42.976 96 96V352C512 405.024 469.024 448 416 448zM383.36 249.472 l0.192 -8.16c0 -83.328 -63.392 -179.328 -179.328 -179.328c-35.584 0 -68.704 10.432 -96.608 28.32c4.928 -0.576 9.952 -0.896 15.04 -0.896 c29.536 0 56.704 10.08 78.272 26.976c-27.584 0.512 -50.848 18.752 -58.88 43.776C145.92 159.424 149.824 159.072 153.92 159.072 c5.76 0 11.328 0.736 16.608 2.176c-28.832 5.824 -50.56 31.264 -50.56 61.792V223.84c8.512 -4.736 18.208 -7.552 28.544 -7.904 C131.616 227.232 120.48 246.528 120.48 268.384c0 11.552 3.104 22.368 8.512 31.68c31.072 -38.144 77.536 -63.232 129.92 -65.856 C257.824 238.816 257.28 243.648 257.28 248.576c0 34.784 28.224 63.008 63.04 63.008c18.112 0 34.496 -7.648 46.016 -19.904 c14.336 2.848 27.84 8.096 40.032 15.296c-4.704 -14.72 -14.688 -27.072 -27.712 -34.88c12.704 1.504 24.896 4.928 36.192 9.92 C406.4 269.408 395.68 258.304 383.36 249.472z"/><glyph unicode="&#xE02C;" glyph-name="tablet5" horiz-adv-x="512" d="M407 447H103C77 447 61 431 61 406v-422c0 -25 16 -41 42 -41h304c26 0 42 16 42 41V406C449 431 433 447 407 447zM417 -16c0 -5 0 -8 -10 -8H103 c-10 0 -10 3 -10 8V406c0 5 0 8 10 8h304c10 0 10 -3 10 -8V-16zM385 388H125c-6 0 -11 -5 -11 -11v-329c0 -6 5 -11 11 -11h260c6 0 11 5 11 11V377C396 383 391 388 385 388zM374 59H136V366h238V59zM241 19c-4 -4 -5 -8 -5 -13c0 -10 9 -19 19 -19s19 9 19 19c0 5 -2 9 -6 13C261 26 248 26 241 19z"/><glyph unicode="&#xE02D;" glyph-name="vehicle3" horiz-adv-x="512" d="M256 444.29784615385C116.65723076923 444.29784615385 3.7021538461538 331.34276923077 3.7021538461538 192S116.65723076923 -60.297846153846 256 -60.297846153846S508.29784615385 52.657230769231 508.29784615385 192 S395.34276923077 444.29784615385 256 444.29784615385zM256 -6.0849230769231C146.74707692308 -6.0849230769231 57.934769230769 82.766769230769 57.934769230769 192S146.74707692308 390.08492307692 256 390.08492307692c109.23323076923 0 198.12430769231 -88.851692307692 198.12430769231 -198.08492307692 S365.23323076923 -6.0849230769231 256 -6.0849230769231zM256 367.49784615385c-96.945230769231 0 -175.49784615385 -78.572307692308 -175.49784615385 -175.49784615385S159.05476923077 16.502153846154 256 16.502153846154s175.49784615385 78.572307692308 175.49784615385 175.49784615385 S352.94523076923 367.49784615385 256 367.49784615385zM383.88184615385 137.55076923077c-0.15753846153846 0.098461538461538 -0.29538461538462 0.31507692307692 -0.41353846153846 0.41353846153846l-63.586461538462 42.003692307692c0.70892307692308 3.9187692307692 1.2209230769231 7.9163076923077 1.2209230769231 12.032 s-0.45292307692308 8.1132307692308 -1.2209230769231 12.032l63.586461538462 42.003692307692c0.13784615384615 0.098461538461538 0.27569230769231 0.31507692307692 0.41353846153846 0.41353846153846c7.1286153846154 -16.738461538462 11.106461538462 -35.131076923077 11.106461538462 -54.449230769231 C395.008 172.70153846154 391.01046153846 154.28923076923 383.88184615385 137.55076923077zM366.13907692308 276.49969230769c-0.059076923076923 -0.019692307692308 -0.17723076923077 -0.039384615384615 -0.23630769230769 -0.059076923076923l-68.233846153846 -34.875076923077 c-5.7895384615385 4.8836923076923 -12.366769230769 8.7827692307692 -19.613538461538 11.421538461538l-3.9384615384615 76.425846153846c0 0.098461538461538 -0.078769230769231 0.23630769230769 -0.078769230769231 0.33476923076923C311.45353846154 324.84430769231 344.18215384615 305.05353846154 366.13907692308 276.49969230769zM255.96061538462 161.04369230769c-17.112615384615 0 -30.956307692308 13.863384615385 -30.956307692308 30.956307692308s13.843692307692 30.956307692308 30.956307692308 30.956307692308c17.073230769231 0 30.916923076923 -13.863384615385 30.916923076923 -30.956307692308 S273.03384615385 161.04369230769 255.96061538462 161.04369230769zM239.12369230769 329.90523076923c-0.019692307692308 -0.15753846153846 -0.11815384615385 -0.37415384615385 -0.13784615384615 -0.512l-4.5489230769231 -76.248615384615 c-7.6996923076923 -2.7175384615385 -14.631384615385 -6.7741538461538 -20.696615384615 -11.953230769231l-68.332307692308 34.166153846154C145.30953846154 275.39692307692 145.152 275.39692307692 145.07323076923 275.456C167.24676923077 304.87630769231 200.74338461538 325.23815384615 239.12369230769 329.90523076923zM127.60615384615 245.18892307692c0.078769230769231 -0.059076923076923 0.15753846153846 -0.19692307692308 0.23630769230769 -0.23630769230769l64.137846153846 -41.550769230769C191.35015384615 199.69969230769 190.83815384615 195.91876923077 190.83815384615 192s0.49230769230769 -7.6996923076923 1.1618461538462 -11.421538461538 l-64.137846153846 -41.531076923077c-0.078769230769231 -0.059076923076923 -0.17723076923077 -0.19692307692308 -0.256 -0.256c-6.8332307692308 16.403692307692 -10.633846153846 34.363076923077 -10.633846153846 53.208615384615C116.992 210.84553846154 120.79261538462 228.78523076923 127.60615384615 245.18892307692zM145.09292307692 108.52430769231c0.078769230769231 0.039384615384615 0.256 0.059076923076923 0.33476923076923 0.098461538461538l68.332307692308 34.166153846154c6.0652307692308 -5.2184615384615 12.996923076923 -9.2553846153846 20.696615384615 -11.933538461538l4.5489230769231 -76.268307692308 c0 -0.13784615384615 0.11815384615385 -0.35446153846154 0.11815384615385 -0.49230769230769C200.76307692308 58.742153846154 167.26646153846 79.104 145.09292307692 108.52430769231zM274.05784615385 54.272c0 0.098461538461538 0.078769230769231 0.21661538461538 0.078769230769231 0.31507692307692 l3.9384615384615 76.425846153846c7.2270769230769 2.6584615384615 13.824 6.5378461538462 19.613538461538 11.421538461538l68.233846153846 -34.875076923077c0.059076923076923 -0.019692307692308 0.15753846153846 -0.039384615384615 0.21661538461538 -0.059076923076923 C344.18215384615 78.946461538462 311.45353846154 59.175384615385 274.05784615385 54.272z"/><glyph unicode="&#xE02E;" glyph-name="view2" horiz-adv-x="512" d="M41 88c-19 0 -36 -16 -36 -35s17 -36 36 -36s35 17 35 36S60 88 41 88zM41 260c-19 0 -36 -16 -36 -35s17 -35 36 -35s35 16 35 35S60 260 41 260zM169 365h303c18 0 33 14 33 32s-15 33 -33 33H169c-18 0 -33 -15 -33 -33S151 365 169 365zM41 433C22 433 5 416 5 397s17 -35 36 -35s35 16 35 35S60 433 41 433zM472 258H169c-18 0 -33 -15 -33 -33s15 -33 33 -33h303c18 0 33 15 33 33S490 258 472 258zM472 86H169c-18 0 -33 -15 -33 -33s15 -33 33 -33h303c18 0 33 15 33 33S490 86 472 86z"/><glyph unicode="&#xE02F;" glyph-name="wheel4" horiz-adv-x="476" d="M474.07728813559 128.84176271186c-2.8637288135593 10.482983050847 -8.8341694915254 19.317152542373 -17.026169491525 25.322305084746c-0.72894915254237 2.4992542372881 -1.4405423728814 7.4456949152542 -0.26033898305085 13.20786440678l0.64216949152542 3.072v3.1587796610169V191.13220338983 c0 21.642847457627 -0.10413559322034 22.163525423729 -0.83308474576271 25.54793220339c-1.3190508474576 6.144 -0.60745762711864 11.333423728814 0.12149152542373 13.936813559322c8.2787796610169 6.0051525423729 14.370711864407 14.943457627119 17.286508474576 25.617355932203 c4.5298983050847 16.592271186441 1.3190508474576 36.291254237288 -8.816813559322 54.046372881356l-10.257355932203 17.911322033898c-12.947525423729 22.684203389831 -34.104406779661 36.777220338983 -55.226576271186 36.777220338983c-6.5605423728814 0 -13.016949152542 -1.4058305084746 -18.831186440678 -4.0786440677966 c-3.4364745762712 0.43389830508475 -9.615186440678 2.6033898305085 -14.839322033898 6.7514576271186l-1.7876610169492 1.423186440678l-1.9785762711864 1.1281355932203l-32.229966101695 18.518779661017L328.37423728814 389.68406779661l-1.8223728813559 0.76366101694915 c-6.5258305084746 2.672813559322 -11.420203389831 7.1159322033898 -13.329355932203 9.6498983050847C310.98359322034 427.65884745763 283.75213559322 448 248.12040677966 448H228.05694915254c-35.458169491525 0 -62.620203389831 -20.028745762712 -65.067389830508 -47.225491525424 C161.01098305085 398.3273220339 156.18603389831 394.12718644068 149.83376271186 391.59322033898l-1.735593220339 -0.6768813559322L146.46671186441 390.01383050847L112.72677966102 371.52976271186L110.43579661017 370.26277966102L108.38779661017 368.6313220339 C103.02481355932 364.34440677966 97.123796610169 362.19227118644 93.999728813559 361.61952542373c-5.4497627118644 2.4124745762712 -11.454915254237 3.6447457627119 -17.546847457627 3.6447457627119c-20.792406779661 0 -41.845152542373 -14.214508474576 -54.931525423729 -37.124338983051L11.281355932203 310.22861016949 c-7.1506440677966 -12.496271186441 -11.142508474576 -26.398372881356 -11.177220338983 -39.189694915254c-0.052067796610169 -16.522847457627 6.2828474576271 -30.477016949153 17.581559322034 -39.154983050847c0.59010169491525 -2.6901694915254 1.0587118644068 -7.7754576271186 -0.27769491525424 -13.641762711864 c-0.65952542372881 -2.9157966101695 -1.0760677966102 -4.8596610169492 -1.0760677966102 -27.127322033898c0 -19.924610169492 0 -19.924610169492 0.26033898305085 -21.903186440678l0.15620338983051 -1.2669830508475l0.29505084745763 -1.2669830508475c1.2669830508475 -6.0051525423729 0.78101694915254 -11.15986440678 0.19091525423729 -13.919457627119 C6.0398644067797 144.06291525424 -0.1735593220339 130.14345762712 0 113.58589830508c0.13884745762712 -12.652474576271 4.1307118644068 -26.433084745763 11.246644067797 -38.912l10.222644067797 -17.893966101695c13.20786440678 -23.100745762712 34.139118644068 -37.471457627119 54.671186440678 -37.471457627119 c5.6233220338983 0 11.194576271186 1.1107796610169 16.27986440678 3.2455593220339c2.8984406779661 -0.65952542372881 8.5391186440678 -2.7075254237288 14.110372881356 -7.2200677966102l1.9091525423729 -1.5273220338983l2.1521355932203 -1.2149152542373l35.492881355932 -20.063457627119l1.7703050847458 -0.98928813559322l1.8570847457627 -0.74630508474576 c6.3175593220339 -2.5513220338983 11.21193220339 -6.6126101694915 13.294644067797 -9.0424406779661c2.8463728813559 -26.381016949153 29.834847457627 -45.715525423729 64.997966101695 -45.715525423729h20.046101694915c35.354033898305 0 62.446644067797 19.681627118644 65.032677966102 46.427118644068 c2.0306440677966 2.5166101694915 6.9597288135593 6.8208813559322 13.433491525424 9.528406779661l1.9265084745763 0.81572881355932l1.8223728813559 1.0760677966102l34.017627118644 20.115525423729l1.8223728813559 1.0760677966102l1.6835254237288 1.3016949152542 c5.3629830508475 4.2695593220339 11.298711864407 6.4390508474576 14.44013559322 6.9770847457627c5.432406779661 -2.3951186440678 11.489627118644 -3.6794576271186 17.633627118644 -3.6794576271186c20.809762711864 0 41.862508474576 14.23186440678 54.948881355932 37.124338983051l10.24 17.911322033898 C475.32691525424 92.550508474576 478.58983050847 112.30155932203 474.07728813559 128.84176271186zM438.65383050847 89.860338983051l-10.24 -17.911322033898c-7.6018983050847 -13.277288135593 -19.160949152542 -21.712271186441 -28.446372881356 -21.712271186441 c-2.3083389830508 0 -4.4778305084746 0.50332203389831 -6.4043389830508 1.6314576271186c-2.6033898305085 1.4926101694915 -6.0051525423729 2.2042033898305 -9.8234576271186 2.2042033898305c-10.34413559322 0 -24.003254237288 -5.12 -34.885423728814 -13.815322033898l-34.017627118644 -20.080813559322 c-17.633627118644 -7.3762711864407 -32.039050847458 -22.406508474576 -32.039050847458 -33.479593220339s-15.585627118644 -20.115525423729 -34.677152542373 -20.115525423729H228.05694915254c-19.091525423729 0 -34.677152542373 8.9209491525424 -34.677152542373 19.803118644068s-14.474847457627 25.634711864407 -32.177898305085 32.768 l-35.510237288136 20.080813559322c-11.038372881356 8.8688813559322 -24.732203389831 14.127728813559 -34.816 14.127728813559c-3.5058983050847 0 -6.5778983050847 -0.64216949152542 -8.9556610169492 -1.9959322033898c-1.7529491525424 -0.98928813559322 -3.7141694915254 -1.4578983050847 -5.7795254237288 -1.4578983050847 c-8.9903728813559 0 -20.462644067797 8.6432542372881 -28.116610169492 22.059389830508l-10.257355932203 17.911322033898c-9.4589830508475 16.557559322034 -9.6498983050847 34.416813559322 -0.41654237288136 39.675661016949c9.2333559322034 5.2935593220339 13.537627118644 24.853694915254 9.5631186440678 43.493966101695 c0 0 0 0.052067796610169 0 18.084881355932c0 18.883254237288 0.36447457627119 20.48 0.36447457627119 20.48c4.1307118644068 18.605559322034 -0.1735593220339 38.235118644068 -9.5804745762712 43.615457627119C28.307525423729 260.55593220339 28.359593220339 278.5193220339 37.83593220339 295.05952542373 L48.058576271186 312.97084745763c7.6018983050847 13.294644067797 19.143593220339 21.712271186441 28.394305084746 21.712271186441c2.2736271186441 0 4.4257627118644 -0.50332203389831 6.3349152542373 -1.5967457627119C85.391186440678 331.59376271186 88.758237288136 330.89952542373 92.576542372881 330.89952542373 c10.34413559322 0 23.951186440678 5.1373559322034 34.833355932203 13.797966101695l33.73993220339 18.48406779661c17.720406779661 7.0638644067797 32.212610169492 22.163525423729 32.212610169492 33.549016949153c0 11.385491525424 15.585627118644 20.688271186441 34.677152542373 20.688271186441h20.063457627119V417.43620338983 c19.091525423729 0 34.677152542373 -9.4589830508475 34.677152542373 -21.018033898305c0 -11.576406779661 14.44013559322 -26.971118644068 32.091118644068 -34.243254237288L347.1186440678 343.63877966102c10.725966101695 -8.4870508474576 24.315661016949 -13.450847457627 34.92013559322 -13.450847457627 c4.1654237288136 0 7.879593220339 0.78101694915254 10.760677966102 2.4124745762712c2.1174237288136 1.1975593220339 4.495186440678 1.7703050847458 6.9944406779661 1.7703050847458c9.5631186440678 0 21.191593220339 -8.2614237288136 28.689355932203 -21.365152542373l10.24 -17.911322033898 c9.4416271186441 -16.540203389831 8.9903728813559 -34.781288135593 -1.0760677966102 -40.508745762712c-10.014372881356 -5.744813559322 -14.908745762712 -25.686779661017 -10.882169491525 -44.327050847458c0 0 0.1735593220339 -0.72894915254237 0.1735593220339 -19.143593220339c0 -17.564203389831 0 -17.564203389831 0 -17.564203389831 c-3.783593220339 -18.206372881356 1.1802033898305 -37.731796610169 11.038372881356 -43.355118644068C447.81776271186 124.57220338983 448.11281355932 106.43525423729 438.65383050847 89.860338983051zM236.21423728814 315.904c-67.913762711864 0 -122.94942372881 -55.070372881356 -122.94942372881 -122.96677966102c0 -67.931118644068 55.035661016949 -122.96677966102 122.94942372881 -122.96677966102s122.96677966102 55.053016949153 122.96677966102 122.96677966102 C359.18101694915 260.83362711864 304.128 315.904 236.21423728814 315.904zM236.21423728814 100.53423728814c-50.957016949153 0 -92.385627118644 41.445966101695 -92.385627118644 92.385627118644c0 50.939661016949 41.445966101695 92.385627118644 92.385627118644 92.385627118644 s92.402983050847 -41.445966101695 92.402983050847 -92.385627118644C328.61722033898 141.98020338983 287.17125423729 100.53423728814 236.21423728814 100.53423728814zM237.46386440678 276.03742372881c-45.16013559322 0 -81.885288135593 -36.725152542373 -81.885288135593 -81.885288135593c0 -45.142779661017 36.725152542373 -81.850576271186 81.885288135593 -81.850576271186c45.142779661017 0 81.86793220339 36.707796610169 81.86793220339 81.850576271186 C319.33179661017 239.31227118644 282.6066440678 276.03742372881 237.46386440678 276.03742372881zM237.46386440678 142.8653559322c-28.342237288136 0 -51.30413559322 22.961898305085 -51.30413559322 51.286779661017s22.961898305085 51.30413559322 51.30413559322 51.30413559322 c28.324881355932 0 51.30413559322 -22.979254237288 51.30413559322 -51.30413559322S265.78874576271 142.8653559322 237.46386440678 142.8653559322z"/><glyph unicode="&#xE030;" glyph-name="youtube26" horiz-adv-x="512" d="M302.24384 152.28928c-7.22944 0 -14.05952 -4.01408 -20.48512 -12.04736v48.50688h-20.18304v-148.52096h20.18304v10.84928 c6.62528 -8.23808 13.45024 -12.35456 20.48512 -12.35456c8.23296 0 13.55264 4.21376 15.96416 12.65152c1.40288 4.224 2.10944 11.5456 2.10944 21.99552v43.98592 c0 10.63936 -0.70656 18.0736 -2.10944 22.28736C315.79648 148.08064 310.4768 152.28928 302.24384 152.28928zM300.43648 71.8592c0 -9.85088 -2.91328 -14.75584 -8.73984 -14.75584 c-3.41504 0 -6.72768 1.60256 -9.93792 4.8128V129.40288c3.21024 3.2 6.52288 4.8128 9.93792 4.8128c5.82144 0 8.73984 -5.02272 8.73984 -15.06304V71.8592zM366.1056 152.28928c-10.24 0 -18.2784 -3.82464 -24.09984 -11.44832c-4.0192 -5.41184 -6.02624 -14.06464 -6.02624 -25.90208v-38.87104 c0 -11.84768 2.10944 -20.47488 6.32832 -25.90208c5.82144 -7.63904 13.95712 -11.44832 24.40192 -11.44832c10.64448 0 18.67776 4.01408 24.09984 12.05248 c2.41152 3.61472 3.9168 7.62368 4.52096 12.05248c0.39936 2.80064 0.59904 7.13216 0.59904 12.95872v2.70848h-20.48512c0 -2.21184 0 -4.36736 0 -6.47168 c0 -2.10432 -0.0512 -3.7632 -0.14848 -4.97664c-0.1024 -1.19808 -0.14848 -1.90464 -0.14848 -2.10432c-1.2032 -5.22752 -4.21888 -7.82336 -9.0368 -7.82336c-6.83008 0 -10.24 5.12 -10.24 15.35488 v19.584h40.064V114.944c0 11.63776 -2.10944 20.2752 -6.3232 25.90208C384.18432 148.46464 376.35072 152.28928 366.1056 152.28928zM375.74656 108.61056h-19.88096v10.25024 c0 10.24 3.31264 15.35488 9.93792 15.35488c6.6304 0 9.94304 -5.12 9.94304 -15.35488V108.61056zM224.21504 66.43712c-4.41856 -6.22592 -8.63744 -9.33376 -12.65152 -9.33376c-2.816 0 -4.32128 1.50528 -4.51584 4.52096 c-0.2048 0.38912 -0.30208 3.01056 -0.30208 7.82336V150.784h-19.88096v-87.36256c0 -7.63904 0.60416 -13.05088 1.80736 -16.26112c1.80736 -5.63712 6.02624 -8.43776 12.65152 -8.43776 c7.42912 0 15.06304 4.52096 22.89664 13.55776v-12.05248h20.18304V150.784h-20.18304V66.43712zM250.42944 264.35584c6.4256 0 9.64096 5.13024 9.64096 15.37024v47.0016c0 10.43968 -3.21536 15.66208 -9.64096 15.66208 c-6.43072 0 -9.64096 -5.2224 -9.64096 -15.66208v-47.0016C240.78848 269.48608 243.99872 264.35584 250.42944 264.35584zM113.96096 167.65952L137.45664 167.65952L137.45664 40.22784L159.74912 40.22784L159.74912 167.65952L183.84896 167.65952L183.84896 188.7488L113.96096 188.7488ZM399.54944 425.8304H110.34624c-23.90016 0 -44.33408 -8.49408 -61.30688 -25.45152c-16.9728 -16.98304 -25.45664 -37.41184 -25.45664 -61.312 V49.8688c0 -23.90016 8.48384 -44.3392 25.45664 -61.29664c16.96768 -16.96768 37.4016 -25.46688 61.30688 -25.46688h289.2032c23.89504 0 44.32896 8.49408 61.30176 25.46688 c16.96768 16.95744 25.45664 37.39648 25.45664 61.29664V339.06688c0 23.90016 -8.48896 44.32896 -25.45664 61.312C443.8784 417.33632 423.44448 425.8304 399.54944 425.8304zM296.82176 358.95296h20.18304v-81.93536c0 -4.82304 0.1024 -7.43936 0.30208 -7.83872c0.19968 -3.2256 1.80736 -4.82304 4.81792 -4.82304c4.01408 0 8.23296 3.10784 12.65152 9.344 V358.95296h20.18304v-111.4624h-20.18304v12.05248c-8.23808 -9.0368 -15.96928 -13.55776 -23.19872 -13.55776c-6.43072 0 -10.74688 2.70848 -12.9536 8.13056 c-1.2032 3.61472 -1.80736 9.13408 -1.80736 16.56832V358.95296zM220.60032 322.80576c0 11.63776 2.10944 20.38272 6.32832 26.20416 c5.42208 7.62368 13.25568 11.44832 23.49568 11.44832c9.83552 0 17.66912 -3.82464 23.49568 -11.44832c4.21888 -5.82656 6.3232 -14.5664 6.3232 -26.20416v-39.16288 c0 -12.04736 -2.10944 -20.79232 -6.3232 -26.20416c-5.82656 -7.63904 -13.66016 -11.44832 -23.49568 -11.44832c-10.24 0 -18.0736 3.8144 -23.49568 11.44832 c-4.21888 5.8112 -6.32832 14.54592 -6.32832 26.20416V322.80576zM166.37952 397.2096l15.96928 -58.74176l15.36 58.74176h22.59456l-27.1104 -89.17504v-60.544h-22.29248V308.03456 c-2.21184 11.04896 -6.83008 26.91072 -13.85984 47.60064c-1.408 4.61312 -3.72224 11.5456 -6.93248 20.79232c-3.21536 9.22624 -5.62688 16.15872 -7.22944 20.78208H166.37952zM414.61248 33.60256c-2.01216 -8.64768 -6.28224 -15.96928 -12.80512 -21.99552c-6.528 -6.02624 -14.11072 -9.54368 -22.74304 -10.54208 c-27.51488 -3.01056 -68.8896 -4.52096 -124.11392 -4.52096c-55.23456 0 -96.60416 1.50528 -124.11392 4.52096c-8.63744 0.9984 -16.22016 4.52096 -22.74304 10.54208 c-6.528 6.02624 -10.79808 13.34272 -12.8 21.99552c-4.0192 16.86528 -6.02624 42.97728 -6.02624 78.32576c0 34.7392 2.00704 60.8512 6.02624 78.32576 c2.00704 8.82688 6.27712 16.2048 12.8 22.13376c6.52288 5.92896 14.208 9.39008 23.04512 10.40384c27.31008 3.01056 68.5824 4.52096 123.81696 4.52096 c55.42912 0 96.79872 -1.50528 124.11392 -4.52096c8.63744 -1.01376 16.27136 -4.46976 22.89664 -10.40384c6.6304 -5.92896 10.94656 -13.30688 12.9536 -22.13376 c3.8144 -16.67584 5.72416 -42.7776 5.72416 -78.32576C420.6336 76.57984 418.62656 50.46784 414.61248 33.60256z"/></font></defs></svg>
