<?xml version="1.0" encoding="utf-8"?>
<!-- Generator: Adobe Illustrator 16.0.0, SVG Export Plug-In . SVG Version: 6.00 Build 0)  -->
<!DOCTYPE svg PUBLIC "-//W3C//DTD SVG 1.1//EN" "http://www.w3.org/Graphics/SVG/1.1/DTD/svg11.dtd">
<svg version="1.1" id="Layer_1" xmlns="http://www.w3.org/2000/svg" xmlns:xlink="http://www.w3.org/1999/xlink" x="0px" y="0px"
	 width="41px" height="41px" viewBox="0 0 41 41" enable-background="new 0 0 41 41" xml:space="preserve">
<path d="M20.5,37.5c-2.844,0-5.657-0.727-8.165-2.104l-0.032,0.043l-0.461-0.215l-3.075-2.235l0.091-0.125
	C5.447,29.651,3.5,25.171,3.5,20.5c0-1.033,0.103-2.094,0.307-3.16l-0.052-0.016l0.068-0.507l1.175-3.616l0.143,0.047
	c2.481-5.25,7.477-8.884,13.21-9.611V3.583l0.5-0.083h3.8v0.137c5.732,0.727,10.729,4.362,13.211,9.612l0.051-0.017l0.247,0.445
	l1.175,3.615l-0.141,0.045c0.204,1.067,0.307,2.129,0.307,3.163c0,4.669-1.948,9.149-5.358,12.363l0.091,0.125l-3.478,2.528
	l-0.089-0.122C26.159,36.773,23.345,37.5,20.5,37.5z M12.147,34.208l0.299,0.1c4.904,2.868,11.206,2.867,16.108,0l0.389-0.228
	l0.03,0.041l1.861-1.353l-0.031-0.042l0.338-0.302C34.547,29.381,36.5,25.036,36.5,20.5c0-1.106-0.126-2.248-0.375-3.395
	l-0.096-0.443l0.043-0.014l-0.758-2.331l-0.181-0.254c-2.328-5.281-7.322-8.914-13.034-9.482L21.65,4.5h-2.466l-0.285,0.081
	C13.187,5.149,8.193,8.783,5.867,14.064l-0.183,0.415l-0.045-0.015L4.88,16.798l-0.005,0.308C4.626,18.252,4.5,19.394,4.5,20.5
	c0,4.537,1.953,8.883,5.359,11.924l0.338,0.302l-0.031,0.043L12.147,34.208z M20.5,34.2c-2.303,0-4.586-0.587-6.603-1.697
	l-0.497-0.273l4.504-6.201l0.361,0.143c1.438,0.569,3.031,0.569,4.468,0l0.361-0.143l4.505,6.201l-0.497,0.273
	C25.086,33.613,22.803,34.2,20.5,34.2z M14.884,31.89c3.482,1.718,7.749,1.718,11.233,0l-3.382-4.655
	c-1.448,0.485-3.022,0.485-4.47,0L14.884,31.89z M11.547,30.866l-0.414-0.388C8.339,27.855,6.8,24.312,6.8,20.5
	c0-0.863,0.082-1.728,0.242-2.572l0.106-0.557l7.293,2.371l-0.03,0.5C14.406,20.328,14.4,20.413,14.4,20.5
	c0,1.415,0.495,2.793,1.395,3.882l0.247,0.299L11.547,30.866z M7.931,18.677C7.844,19.279,7.8,19.89,7.8,20.5
	c0,3.343,1.278,6.464,3.611,8.851l3.372-4.64C13.889,23.497,13.4,22.016,13.4,20.5c0-0.015,0-0.03,0-0.045L7.931,18.677z
	 M29.454,30.866l-4.495-6.186l0.247-0.299c0.899-1.087,1.394-2.465,1.394-3.881c0-0.089-0.006-0.177-0.013-0.265l-0.031-0.495
	l7.295-2.371l0.106,0.557c0.161,0.844,0.243,1.709,0.243,2.573c0,3.812-1.539,7.355-4.333,9.978L29.454,30.866z M26.217,24.711
	l3.372,4.64c2.333-2.386,3.611-5.507,3.611-8.851c0-0.61-0.044-1.222-0.131-1.824l-5.47,1.777c0,0.016,0,0.031,0,0.047
	C27.6,22.017,27.111,23.498,26.217,24.711z M20.5,24.3c-2.095,0-3.8-1.705-3.8-3.8c0-2.095,1.705-3.8,3.8-3.8
	c2.096,0,3.8,1.705,3.8,3.8C24.3,22.596,22.596,24.3,20.5,24.3z M20.5,17.7c-1.544,0-2.8,1.256-2.8,2.8s1.256,2.8,2.8,2.8
	s2.8-1.256,2.8-2.8S22.044,17.7,20.5,17.7z M25.85,17.554l-0.208-0.326c-0.834-1.307-2.119-2.24-3.617-2.626l-0.375-0.097V6.848
	l0.562,0.07c4.67,0.583,8.662,3.482,10.679,7.755l0.242,0.513L25.85,17.554z M22.65,13.741c1.459,0.463,2.722,1.38,3.617,2.626
	l5.465-1.776c-1.85-3.513-5.183-5.934-9.082-6.597V13.741z M15.151,17.553l-7.284-2.367l0.242-0.513
	c2.017-4.272,6.009-7.171,10.678-7.754l0.562-0.07v7.656l-0.375,0.097c-1.498,0.386-2.781,1.319-3.616,2.625L15.151,17.553z
	 M9.269,14.59l5.466,1.776c0.894-1.246,2.156-2.163,3.615-2.625V7.994C14.451,8.656,11.119,11.077,9.269,14.59z"/>
</svg>
