<?xml version="1.0" encoding="UTF-8" ?>
<!DOCTYPE svg PUBLIC "-//W3C//DTD SVG 1.1//EN" "http://www.w3.org/Graphics/SVG/1.1/DTD/svg11.dtd">
<svg width="200pt" height="118pt" viewBox="0 0 200 118" version="1.1" xmlns="http://www.w3.org/2000/svg">
<g id="#574b62ff">
<path fill="#574b62" opacity="1.00" d=" M 160.82 14.78 C 163.14 11.67 167.83 12.11 170.52 14.48 C 172.40 16.57 172.58 19.84 171.27 22.28 C 169.19 26.03 166.59 29.47 164.24 33.05 C 169.36 35.23 174.98 36.33 179.74 39.28 C 185.64 43.41 188.07 51.08 187.72 58.03 C 187.28 66.01 187.72 74.03 187.12 81.99 C 187.04 85.41 183.78 87.05 180.93 87.87 C 179.53 95.77 173.55 102.72 165.75 104.83 C 159.52 106.87 152.51 105.41 147.17 101.78 C 142.56 98.43 139.60 93.19 138.58 87.63 C 112.99 87.57 87.40 87.63 61.80 87.59 C 60.12 95.39 53.86 102.06 46.06 103.89 C 39.12 105.87 31.52 103.49 26.12 98.95 C 21.27 94.25 18.77 87.22 19.48 80.52 C 17.29 80.12 14.66 79.79 13.54 77.57 C 11.22 73.45 12.49 68.51 12.17 64.02 C 12.37 59.52 11.04 53.54 15.39 50.55 C 19.51 48.80 24.25 49.30 28.42 50.63 C 29.87 51.19 31.40 50.69 32.87 50.52 C 43.49 48.67 54.25 47.34 65.05 47.38 C 67.20 41.37 68.97 35.23 71.28 29.28 C 72.35 26.22 75.97 25.46 78.84 25.40 C 99.23 25.38 119.63 25.42 140.02 25.38 C 144.15 25.20 147.94 27.04 151.69 28.49 C 154.68 23.88 157.51 19.15 160.82 14.78 M 154.05 35.58 C 149.08 34.12 144.41 31.04 139.07 31.37 C 118.27 31.45 97.48 31.37 76.68 31.41 C 74.17 38.82 71.66 46.24 69.14 53.65 C 54.40 52.72 39.72 55.21 25.28 57.89 C 25.26 57.30 25.22 56.12 25.20 55.53 C 22.86 55.53 20.52 55.53 18.18 55.53 C 18.18 61.85 18.17 68.16 18.18 74.48 C 21.10 74.38 24.30 74.04 26.76 75.98 C 23.94 82.19 25.23 90.08 30.46 94.63 C 36.26 100.21 46.40 99.86 51.85 93.95 C 57.92 88.02 57.76 77.24 51.53 71.48 C 47.65 67.44 41.74 66.62 36.41 67.32 C 37.08 67.01 38.43 66.39 39.11 66.08 C 44.21 65.95 49.31 66.35 54.41 66.41 C 55.59 71.47 56.76 76.54 57.95 81.60 C 86.72 81.63 115.48 81.54 144.25 81.67 C 144.06 85.61 144.57 89.78 147.00 93.03 C 151.43 99.92 161.56 101.98 168.27 97.25 C 175.83 92.51 177.59 81.13 171.93 74.27 C 166.92 67.44 156.47 66.47 149.95 71.68 C 150.33 70.21 150.72 68.73 151.12 67.26 C 157.08 67.25 163.05 67.34 169.01 67.20 C 171.54 71.97 173.77 76.88 176.17 81.71 C 177.88 81.73 179.59 81.76 181.30 81.79 C 181.45 73.20 181.46 64.60 181.75 56.01 C 181.89 50.47 178.82 44.46 173.32 42.67 C 167.27 40.45 161.23 38.25 155.19 36.01 C 158.34 31.23 161.47 26.43 164.66 21.67 C 165.51 20.48 166.04 19.10 166.26 17.65 C 161.67 23.24 158.19 29.66 154.05 35.58 Z" />
<path fill="#574b62" opacity="1.00" d=" M 80.38 34.02 C 90.14 33.98 99.89 34.00 109.65 34.01 C 109.68 49.02 109.60 64.04 109.59 79.06 C 98.55 78.77 87.43 79.69 76.45 78.56 C 79.18 77.49 82.15 77.90 85.01 77.86 C 92.83 77.89 100.65 77.86 108.47 77.87 C 108.48 63.65 108.47 49.42 108.47 35.20 C 99.39 35.20 90.31 35.20 81.23 35.20 C 79.25 40.98 77.34 46.79 75.30 52.56 C 72.96 58.09 74.28 64.21 73.91 70.03 C 73.53 72.78 74.81 75.23 76.24 77.46 C 75.09 76.27 73.93 75.08 72.77 73.91 C 73.25 66.41 71.43 58.51 74.47 51.38 C 76.49 45.61 78.42 39.81 80.38 34.02 Z" />
<path fill="#574b62" opacity="1.00" d=" M 110.95 33.94 C 122.44 33.93 133.93 33.93 145.42 33.94 C 145.18 41.91 145.62 49.90 145.18 57.86 C 143.21 65.08 140.64 72.12 138.43 79.27 C 129.27 79.26 120.11 79.27 110.95 79.26 C 110.94 64.15 110.94 49.05 110.95 33.94 M 112.12 35.13 C 112.12 49.44 112.11 63.75 112.12 78.06 C 120.61 78.07 129.10 78.07 137.59 78.06 C 139.69 71.04 142.37 64.17 144.13 57.06 C 144.42 49.76 144.14 42.44 144.23 35.14 C 133.53 35.13 122.82 35.13 112.12 35.13 Z" />
<path fill="#574b62" opacity="1.00" d=" M 81.18 39.20 C 89.24 39.20 97.29 39.20 105.35 39.20 C 105.35 44.00 105.35 48.79 105.35 53.59 C 97.29 53.61 89.24 53.59 81.18 53.60 C 81.18 48.80 81.18 44.00 81.18 39.20 M 87.07 45.15 C 87.10 45.78 87.15 47.04 87.18 47.67 C 91.28 47.57 95.38 47.57 99.48 47.64 C 99.45 47.03 99.39 45.80 99.36 45.18 C 95.26 45.22 91.17 45.22 87.07 45.15 Z" />
<path fill="#574b62" opacity="1.00" d=" M 114.89 39.20 C 123.73 39.20 132.57 39.20 141.41 39.20 C 141.41 44.00 141.41 48.79 141.41 53.59 C 132.57 53.61 123.73 53.59 114.89 53.60 C 114.88 48.80 114.88 44.00 114.89 39.20 M 120.88 45.20 C 120.87 45.80 120.85 47.00 120.84 47.60 C 125.75 47.60 130.65 47.56 135.55 47.65 C 135.52 47.03 135.45 45.80 135.42 45.18 C 130.57 45.21 125.73 45.20 120.88 45.20 Z" />
<path fill="#574b62" opacity="1.00" d=" M 38.20 76.27 C 43.03 74.06 48.83 78.89 47.72 84.02 C 47.17 89.11 40.42 91.91 36.51 88.50 C 32.26 85.44 33.25 78.05 38.20 76.27 M 39.97 81.97 C 39.41 83.59 39.94 84.19 41.56 83.77 C 42.12 82.14 41.59 81.55 39.97 81.97 Z" />
<path fill="#574b62" opacity="1.00" d=" M 157.30 77.42 C 162.05 75.36 167.66 80.02 166.70 85.05 C 166.27 89.94 160.02 92.99 155.97 90.06 C 151.17 87.24 151.99 79.15 157.30 77.42 M 158.87 83.31 C 158.41 84.97 158.97 85.50 160.56 84.90 C 161.04 83.24 160.48 82.71 158.87 83.31 Z" />
</g>
</svg>
