<?xml version="1.0" encoding="iso-8859-1"?>
<!-- Generator: Adobe Illustrator 16.0.0, SVG Export Plug-In . SVG Version: 6.00 Build 0)  -->
<!DOCTYPE svg PUBLIC "-//W3C//DTD SVG 1.1//EN" "http://www.w3.org/Graphics/SVG/1.1/DTD/svg11.dtd">
<svg version="1.1" id="Capa_1" xmlns="http://www.w3.org/2000/svg" xmlns:xlink="http://www.w3.org/1999/xlink" x="0px" y="0px"
	 width="30.263px" height="25.6px" viewBox="0 0 30.263 25.6" style="enable-background:new 0 0 30.263 25.6;" xml:space="preserve"
	>
<rect style="fill:#000000;" width="7.732" height="6.398"/>
<rect y="9.6" style="fill:#000000;" width="7.732" height="6.4"/>
<rect y="19.199" style="fill:#000000;" width="7.732" height="6.398"/>
<rect x="10.933" y="9.602" style="fill:#000000;" width="19.33" height="6.4"/>
<rect x="10.933" y="19.199" style="fill:#000000;" width="19.33" height="6.4"/>
<rect x="10.933" style="fill:#000000;" width="19.33" height="6.4"/>
<g>
</g>
<g>
</g>
<g>
</g>
<g>
</g>
<g>
</g>
<g>
</g>
<g>
</g>
<g>
</g>
<g>
</g>
<g>
</g>
<g>
</g>
<g>
</g>
<g>
</g>
<g>
</g>
<g>
</g>
</svg>
