<?xml version="1.0" encoding="iso-8859-1"?>
<!-- Generator: Adobe Illustrator 17.1.0, SVG Export Plug-In . SVG Version: 6.00 Build 0)  -->
<!DOCTYPE svg PUBLIC "-//W3C//DTD SVG 1.1//EN" "http://www.w3.org/Graphics/SVG/1.1/DTD/svg11.dtd">
<svg version="1.1" id="Capa_1" xmlns="http://www.w3.org/2000/svg" xmlns:xlink="http://www.w3.org/1999/xlink" x="0px" y="0px"
	 viewBox="0 0 64 64" style="enable-background:new 0 0 64 64;" xml:space="preserve">
<g>
	<path d="M47.948,58.008V3.531c0-1.49-1.211-2.701-2.701-2.701H16.498c-1.49,0-2.701,1.211-2.701,2.701v54.477
		c0,1.49,1.211,2.701,2.701,2.701h28.749C46.737,60.709,47.948,59.498,47.948,58.008z M46.475,58.008
		c0,0.677-0.551,1.228-1.228,1.228H16.498c-0.677,0-1.228-0.55-1.228-1.228V3.531c0-0.677,0.551-1.228,1.228-1.228h28.749
		c0.677,0,1.228,0.55,1.228,1.228V58.008z"/>
	<path d="M44.523,6.255H17.222c-0.204,0-0.369,0.164-0.369,0.368v47.421c0,0.204,0.165,0.369,0.369,0.369h27.301
		c0.204,0,0.369-0.165,0.369-0.369V6.623C44.892,6.42,44.727,6.255,44.523,6.255z M43.155,53.677H18.59c-0.552,0-1-0.448-1-1V7.992
		c0-0.552,0.448-1,1-1h24.564c0.552,0,1,0.448,1,1v44.685C44.155,53.229,43.707,53.677,43.155,53.677z"/>
	<path d="M34.292,55.654h-6.84c-0.203,0-0.368,0.165-0.368,0.368v1.824c0,0.204,0.165,0.368,0.368,0.368h6.84
		c0.203,0,0.368-0.165,0.368-0.368v-1.824C34.661,55.818,34.496,55.654,34.292,55.654z M32.924,57.478h-4.103
		c-0.552,0-1-0.244-1-0.544c0-0.3,0.448-0.544,1-0.544h4.103c0.552,0,1,0.243,1,0.544C33.924,57.234,33.477,57.478,32.924,57.478z"
		/>
</g>
</svg>
