<?xml version="1.0" encoding="UTF-8" ?>
<!DOCTYPE svg PUBLIC "-//W3C//DTD SVG 1.1//EN" "http://www.w3.org/Graphics/SVG/1.1/DTD/svg11.dtd">
<svg width="212pt" height="282pt" viewBox="0 0 212 282" version="1.1" xmlns="http://www.w3.org/2000/svg">
<g id="#9b9b9bff">
<path fill="#9b9b9b" opacity="1.00" d=" M 0.00 0.00 L 163.30 0.00 C 179.40 16.35 195.60 32.63 212.00 48.68 L 212.00 282.00 L 0.00 282.00 L 0.00 0.00 M 18.15 17.29 C 17.91 21.86 17.91 26.43 17.97 31.00 C 17.97 104.33 17.97 177.67 17.97 251.00 C 17.91 255.57 17.91 260.14 18.15 264.71 C 76.78 264.64 135.42 264.65 194.05 264.70 C 194.82 256.82 194.18 248.90 194.38 241.00 C 194.40 185.65 194.35 130.31 194.41 74.96 C 194.31 73.41 194.17 71.86 194.07 70.30 C 178.37 70.37 162.68 70.28 146.98 70.38 C 145.10 70.32 143.23 70.13 141.35 69.97 C 141.50 54.98 141.33 39.99 141.46 25.00 C 141.60 22.43 141.29 19.86 141.08 17.30 C 100.11 17.34 59.13 17.37 18.15 17.29 M 159.19 21.07 C 159.13 31.61 159.03 42.16 159.23 52.70 C 169.54 52.60 179.85 52.79 190.16 52.59 C 188.89 50.96 187.58 49.34 186.11 47.89 C 177.04 39.04 168.21 29.96 159.19 21.07 Z" />
<path fill="#9b9b9b" opacity="1.00" d=" M 35.79 105.81 C 79.85 105.45 123.93 105.82 168.00 105.63 C 170.91 105.56 173.82 105.74 176.74 105.91 C 176.76 111.64 176.76 117.36 176.74 123.09 C 174.49 123.21 172.25 123.37 170.00 123.39 C 125.26 123.16 80.52 123.56 35.79 123.19 C 35.49 117.40 35.50 111.60 35.79 105.81 Z" />
<path fill="#9b9b9b" opacity="1.00" d=" M 35.77 141.05 C 82.77 141.01 129.77 140.88 176.76 141.12 C 176.74 146.98 176.77 152.83 176.70 158.69 C 129.78 158.66 82.86 158.64 35.93 158.69 C 35.32 152.83 35.57 146.93 35.77 141.05 Z" />
<path fill="#9b9b9b" opacity="1.00" d=" M 35.95 176.30 C 70.99 176.36 106.04 176.35 141.08 176.30 C 141.76 182.16 141.44 188.07 141.26 193.95 C 106.10 194.03 70.93 194.04 35.77 193.95 C 35.59 188.07 35.29 182.16 35.95 176.30 Z" />
</g>
</svg>
