<?xml version="1.0" encoding="UTF-8" ?>
<!DOCTYPE svg PUBLIC "-//W3C//DTD SVG 1.1//EN" "http://www.w3.org/Graphics/SVG/1.1/DTD/svg11.dtd">
<svg width="300pt" height="480pt" viewBox="0 0 300 480" version="1.1" xmlns="http://www.w3.org/2000/svg">
<g id="#000000ff">
<path fill="#000000" opacity="1.00" d=" M 55.55 0.00 L 244.44 0.00 C 259.55 1.45 274.23 8.16 284.40 19.57 C 293.60 29.32 298.62 42.34 300.00 55.55 L 300.00 425.42 C 298.86 431.74 297.68 438.13 295.02 444.02 C 287.94 460.44 273.10 473.25 255.82 477.86 C 252.39 478.74 248.90 479.39 245.41 480.00 L 54.59 480.00 C 40.09 478.19 25.97 471.89 16.07 460.96 C 6.86 451.35 1.58 438.52 0.00 425.41 L 0.00 55.56 C 1.21 45.22 4.28 34.95 10.32 26.36 C 20.35 11.22 37.57 1.64 55.55 0.00 M 90.01 30.01 C 89.99 40.00 89.99 50.00 90.01 59.99 C 130.00 60.01 170.00 60.01 209.99 59.99 C 210.01 50.00 210.02 40.00 209.99 30.01 C 170.00 29.99 130.01 29.99 90.01 30.01 M 30.01 90.01 C 29.99 190.01 29.99 290.00 30.01 389.99 C 110.00 390.01 190.00 390.01 269.99 389.99 C 270.01 290.00 270.01 190.00 269.99 90.01 C 190.00 90.00 110.00 89.99 30.01 90.01 M 120.01 420.01 C 119.99 430.00 119.98 440.00 120.01 449.99 C 140.01 450.01 160.00 450.01 179.99 449.99 C 180.01 440.00 180.01 430.00 179.99 420.01 C 159.99 419.99 140.00 419.99 120.01 420.01 Z" />
</g>
</svg>
